# XSI Wavefront OBJ Export v3.0
# File Created: Tue Apr 28 11:02:50 2015
# XSI Version: 12.0.921.0
mtllib sphere.mtl

o sphere
# Hierarchy (from self to top father)
g sphere

#begin 242 vertices
v 0.000000 -1.000000 0.000000
v 0.000000 1.000000 0.000000
v -0.195090 -0.980785 0.000000
v -0.382683 -0.923880 0.000000
v -0.555570 -0.831470 0.000000
v -0.707107 -0.707107 0.000000
v -0.831470 -0.555570 0.000000
v -0.923880 -0.382683 0.000000
v -0.980785 -0.195090 0.000000
v -1.000000 -0.000000 0.000000
v -0.980785 0.195090 0.000000
v -0.923880 0.382683 0.000000
v -0.831470 0.555570 0.000000
v -0.707107 0.707107 0.000000
v -0.555570 0.831470 0.000000
v -0.382683 0.923880 0.000000
v -0.195090 0.980785 0.000000
v -0.180240 -0.980785 0.074658
v -0.353553 -0.923880 0.146447
v -0.513280 -0.831470 0.212608
v -0.653281 -0.707107 0.270598
v -0.768178 -0.555570 0.318190
v -0.853553 -0.382683 0.353553
v -0.906127 -0.195090 0.375330
v -0.923880 -0.000000 0.382683
v -0.906127 0.195090 0.375330
v -0.853553 0.382683 0.353553
v -0.768178 0.555570 0.318190
v -0.653281 0.707107 0.270598
v -0.513280 0.831470 0.212608
v -0.353553 0.923880 0.146447
v -0.180240 0.980785 0.074658
v -0.137950 -0.980785 0.137950
v -0.270598 -0.923880 0.270598
v -0.392847 -0.831470 0.392847
v -0.500000 -0.707107 0.500000
v -0.587938 -0.555570 0.587938
v -0.653281 -0.382683 0.653281
v -0.693520 -0.195090 0.693520
v -0.707107 -0.000000 0.707107
v -0.693520 0.195090 0.693520
v -0.653281 0.382683 0.653281
v -0.587938 0.555570 0.587938
v -0.500000 0.707107 0.500000
v -0.392847 0.831470 0.392847
v -0.270598 0.923880 0.270598
v -0.137950 0.980785 0.137950
v -0.074658 -0.980785 0.180240
v -0.146447 -0.923880 0.353553
v -0.212608 -0.831470 0.513280
v -0.270598 -0.707107 0.653281
v -0.318190 -0.555570 0.768178
v -0.353553 -0.382683 0.853553
v -0.375330 -0.195090 0.906127
v -0.382683 -0.000000 0.923880
v -0.375330 0.195090 0.906127
v -0.353553 0.382683 0.853553
v -0.318190 0.555570 0.768178
v -0.270598 0.707107 0.653281
v -0.212608 0.831470 0.513280
v -0.146447 0.923880 0.353553
v -0.074658 0.980785 0.180240
v 0.000000 -0.980785 0.195090
v 0.000000 -0.923880 0.382683
v 0.000000 -0.831470 0.555570
v 0.000000 -0.707107 0.707107
v 0.000000 -0.555570 0.831470
v 0.000000 -0.382683 0.923880
v 0.000000 -0.195090 0.980785
v 0.000000 -0.000000 1.000000
v 0.000000 0.195090 0.980785
v 0.000000 0.382683 0.923880
v -0.000000 0.555570 0.831470
v 0.000000 0.707107 0.707107
v 0.000000 0.831470 0.555570
v 0.000000 0.923880 0.382683
v 0.000000 0.980785 0.195090
v 0.074658 -0.980785 0.180240
v 0.146447 -0.923880 0.353553
v 0.212608 -0.831470 0.513280
v 0.270598 -0.707107 0.653281
v 0.318190 -0.555570 0.768178
v 0.353553 -0.382683 0.853553
v 0.375330 -0.195090 0.906127
v 0.382683 -0.000000 0.923880
v 0.375330 0.195090 0.906127
v 0.353553 0.382683 0.853553
v 0.318190 0.555570 0.768178
v 0.270598 0.707107 0.653281
v 0.212608 0.831470 0.513280
v 0.146447 0.923880 0.353553
v 0.074658 0.980785 0.180240
v 0.137950 -0.980785 0.137950
v 0.270598 -0.923880 0.270598
v 0.392847 -0.831470 0.392847
v 0.500000 -0.707107 0.500000
v 0.587938 -0.555570 0.587938
v 0.653281 -0.382683 0.653281
v 0.693520 -0.195090 0.693520
v 0.707107 -0.000000 0.707107
v 0.693520 0.195090 0.693520
v 0.653281 0.382683 0.653281
v 0.587938 0.555570 0.587938
v 0.500000 0.707107 0.500000
v 0.392847 0.831470 0.392847
v 0.270598 0.923880 0.270598
v 0.137950 0.980785 0.137950
v 0.180240 -0.980785 0.074658
v 0.353553 -0.923880 0.146447
v 0.513280 -0.831470 0.212608
v 0.653281 -0.707107 0.270598
v 0.768178 -0.555570 0.318190
v 0.853553 -0.382683 0.353553
v 0.906127 -0.195090 0.375330
v 0.923880 -0.000000 0.382683
v 0.906127 0.195090 0.375330
v 0.853553 0.382683 0.353553
v 0.768178 0.555570 0.318190
v 0.653281 0.707107 0.270598
v 0.513280 0.831470 0.212608
v 0.353553 0.923880 0.146447
v 0.180240 0.980785 0.074658
v 0.195090 -0.980785 -0.000000
v 0.382683 -0.923880 -0.000000
v 0.555570 -0.831470 -0.000000
v 0.707107 -0.707107 0.000000
v 0.831470 -0.555570 0.000000
v 0.923880 -0.382683 -0.000000
v 0.980785 -0.195090 -0.000000
v 1.000000 -0.000000 -0.000000
v 0.980785 0.195090 -0.000000
v 0.923880 0.382683 -0.000000
v 0.831470 0.555570 0.000000
v 0.707107 0.707107 -0.000000
v 0.555570 0.831470 -0.000000
v 0.382683 0.923880 -0.000000
v 0.195090 0.980785 0.000000
v 0.180240 -0.980785 -0.074658
v 0.353553 -0.923880 -0.146447
v 0.513280 -0.831470 -0.212608
v 0.653281 -0.707107 -0.270598
v 0.768178 -0.555570 -0.318190
v 0.853553 -0.382683 -0.353553
v 0.906127 -0.195090 -0.375330
v 0.923880 -0.000000 -0.382683
v 0.906127 0.195090 -0.375330
v 0.853553 0.382683 -0.353553
v 0.768178 0.555570 -0.318190
v 0.653281 0.707107 -0.270598
v 0.513280 0.831470 -0.212608
v 0.353553 0.923880 -0.146447
v 0.180240 0.980785 -0.074658
v 0.137950 -0.980785 -0.137950
v 0.270598 -0.923880 -0.270598
v 0.392847 -0.831470 -0.392847
v 0.500000 -0.707107 -0.500000
v 0.587938 -0.555570 -0.587938
v 0.653281 -0.382683 -0.653281
v 0.693520 -0.195090 -0.693520
v 0.707107 -0.000000 -0.707107
v 0.693520 0.195090 -0.693520
v 0.653281 0.382683 -0.653281
v 0.587938 0.555570 -0.587938
v 0.500000 0.707107 -0.500000
v 0.392847 0.831470 -0.392847
v 0.270598 0.923880 -0.270598
v 0.137950 0.980785 -0.137950
v 0.074658 -0.980785 -0.180240
v 0.146447 -0.923880 -0.353553
v 0.212608 -0.831470 -0.513280
v 0.270598 -0.707107 -0.653281
v 0.318190 -0.555570 -0.768178
v 0.353553 -0.382683 -0.853553
v 0.375330 -0.195090 -0.906127
v 0.382683 -0.000000 -0.923880
v 0.375330 0.195090 -0.906127
v 0.353553 0.382683 -0.853553
v 0.318190 0.555570 -0.768178
v 0.270598 0.707107 -0.653281
v 0.212608 0.831470 -0.513280
v 0.146447 0.923880 -0.353553
v 0.074658 0.980785 -0.180240
v -0.000000 -0.980785 -0.195090
v -0.000000 -0.923880 -0.382683
v -0.000000 -0.831470 -0.555570
v 0.000000 -0.707107 -0.707107
v 0.000000 -0.555570 -0.831470
v -0.000000 -0.382683 -0.923880
v -0.000000 -0.195090 -0.980785
v -0.000000 -0.000000 -1.000000
v -0.000000 0.195090 -0.980785
v -0.000000 0.382683 -0.923880
v 0.000000 0.555570 -0.831470
v -0.000000 0.707107 -0.707107
v -0.000000 0.831470 -0.555570
v -0.000000 0.923880 -0.382683
v 0.000000 0.980785 -0.195090
v -0.074658 -0.980785 -0.180240
v -0.146447 -0.923880 -0.353553
v -0.212608 -0.831470 -0.513280
v -0.270598 -0.707107 -0.653281
v -0.318190 -0.555570 -0.768178
v -0.353553 -0.382683 -0.853553
v -0.375330 -0.195090 -0.906127
v -0.382683 -0.000000 -0.923880
v -0.375330 0.195090 -0.906127
v -0.353553 0.382683 -0.853553
v -0.318190 0.555570 -0.768178
v -0.270598 0.707107 -0.653281
v -0.212608 0.831470 -0.513280
v -0.146447 0.923880 -0.353553
v -0.074658 0.980785 -0.180240
v -0.137950 -0.980785 -0.137950
v -0.270598 -0.923880 -0.270598
v -0.392847 -0.831470 -0.392847
v -0.500000 -0.707107 -0.500000
v -0.587938 -0.555570 -0.587938
v -0.653281 -0.382683 -0.653281
v -0.693520 -0.195090 -0.693520
v -0.707107 -0.000000 -0.707107
v -0.693520 0.195090 -0.693520
v -0.653281 0.382683 -0.653281
v -0.587938 0.555570 -0.587938
v -0.500000 0.707107 -0.500000
v -0.392847 0.831470 -0.392847
v -0.270598 0.923880 -0.270598
v -0.137950 0.980785 -0.137950
v -0.180240 -0.980785 -0.074658
v -0.353553 -0.923880 -0.146447
v -0.513280 -0.831470 -0.212608
v -0.653281 -0.707107 -0.270598
v -0.768178 -0.555570 -0.318190
v -0.853553 -0.382683 -0.353553
v -0.906127 -0.195090 -0.375330
v -0.923880 -0.000000 -0.382683
v -0.906127 0.195090 -0.375330
v -0.853553 0.382683 -0.353553
v -0.768178 0.555570 -0.318190
v -0.653281 0.707107 -0.270598
v -0.513280 0.831470 -0.212608
v -0.353553 0.923880 -0.146447
v -0.180240 0.980785 -0.074658
#end 242 vertices

#begin 1440 normals
vn -0.193538 -0.976702 0.092715
vn -0.214286 -0.976702 0.011594
vn -0.000000 -1.000000 0.000000
vn -0.214286 -0.976702 0.011594
vn -0.193538 -0.976702 0.092715
vn -0.351137 -0.923914 0.151939
vn -0.382553 -0.923914 0.005999
vn -0.382553 -0.923914 0.005999
vn -0.351137 -0.923914 0.151939
vn -0.511086 -0.831554 0.217506
vn -0.555418 -0.831554 0.005365
vn -0.555418 -0.831554 0.005365
vn -0.511086 -0.831554 0.217506
vn -0.651420 -0.707231 0.274729
vn -0.706968 -0.707231 0.004529
vn -0.706968 -0.707231 0.004529
vn -0.651420 -0.707231 0.274729
vn -0.766733 -0.555709 0.321415
vn -0.831369 -0.555709 0.003532
vn -0.831369 -0.555709 0.003532
vn -0.766733 -0.555709 0.321415
vn -0.852579 -0.382802 0.355767
vn -0.923827 -0.382802 0.002418
vn -0.923827 -0.382802 0.002418
vn -0.852579 -0.382802 0.355767
vn -0.905644 -0.195159 0.376459
vn -0.980771 -0.195159 0.001228
vn -0.980771 -0.195159 0.001228
vn -0.905644 -0.195159 0.376459
vn -0.923880 0.000000 0.382683
vn -1.000000 0.000000 -0.000000
vn -1.000000 0.000000 -0.000000
vn -0.923880 0.000000 0.382683
vn -0.906584 0.195159 0.374191
vn -0.980771 0.195159 -0.001228
vn -0.980771 0.195159 -0.001228
vn -0.906584 0.195159 0.374191
vn -0.854430 0.382802 0.351299
vn -0.923827 0.382802 -0.002418
vn -0.923827 0.382802 -0.002418
vn -0.854430 0.382802 0.351299
vn -0.769437 0.555709 0.314888
vn -0.831369 0.555709 -0.003532
vn -0.831369 0.555709 -0.003532
vn -0.769437 0.555709 0.314888
vn -0.654886 0.707231 0.266361
vn -0.706968 0.707231 -0.004529
vn -0.706968 0.707231 -0.004529
vn -0.654886 0.707231 0.266361
vn -0.515192 0.831554 0.207593
vn -0.555418 0.831554 -0.005365
vn -0.555418 0.831554 -0.005365
vn -0.515192 0.831554 0.207593
vn -0.355729 0.923914 0.140855
vn -0.382553 0.923914 -0.005999
vn -0.382553 0.923914 -0.005999
vn -0.355729 0.923914 0.140855
vn -0.202411 0.976702 0.071292
vn -0.214286 0.976702 -0.011594
vn -0.214286 0.976702 -0.011594
vn -0.202411 0.976702 0.071292
vn -0.000000 1.000000 0.000000
vn -0.143325 -0.976702 0.159722
vn -0.193538 -0.976702 0.092715
vn -0.000000 -1.000000 0.000000
vn -0.193538 -0.976702 0.092715
vn -0.143325 -0.976702 0.159722
vn -0.266264 -0.923914 0.274748
vn -0.351137 -0.923914 0.151939
vn -0.351137 -0.923914 0.151939
vn -0.266264 -0.923914 0.274748
vn -0.388946 -0.831554 0.396533
vn -0.511086 -0.831554 0.217506
vn -0.511086 -0.831554 0.217506
vn -0.388946 -0.831554 0.396533
vn -0.496699 -0.707231 0.503104
vn -0.651420 -0.707231 0.274729
vn -0.651420 -0.707231 0.274729
vn -0.496699 -0.707231 0.503104
vn -0.585369 -0.555709 0.590365
vn -0.766733 -0.555709 0.321415
vn -0.766733 -0.555709 0.321415
vn -0.585369 -0.555709 0.590365
vn -0.651534 -0.382802 0.654954
vn -0.852579 -0.382802 0.355767
vn -0.852579 -0.382802 0.355767
vn -0.651534 -0.382802 0.654954
vn -0.692642 -0.195159 0.694378
vn -0.905644 -0.195159 0.376459
vn -0.905644 -0.195159 0.376459
vn -0.692642 -0.195159 0.694378
vn -0.707107 0.000000 0.707107
vn -0.923880 0.000000 0.382683
vn -0.923880 0.000000 0.382683
vn -0.707107 0.000000 0.707107
vn -0.694378 0.195159 0.692642
vn -0.906584 0.195159 0.374191
vn -0.906584 0.195159 0.374191
vn -0.694378 0.195159 0.692642
vn -0.654954 0.382802 0.651534
vn -0.854430 0.382802 0.351299
vn -0.854430 0.382802 0.351299
vn -0.654954 0.382802 0.651534
vn -0.590365 0.555709 0.585369
vn -0.769437 0.555709 0.314888
vn -0.769437 0.555709 0.314888
vn -0.590365 0.555709 0.585369
vn -0.503104 0.707231 0.496699
vn -0.654886 0.707231 0.266361
vn -0.654886 0.707231 0.266361
vn -0.503104 0.707231 0.496699
vn -0.396533 0.831554 0.388946
vn -0.515192 0.831554 0.207593
vn -0.515192 0.831554 0.207593
vn -0.396533 0.831554 0.388946
vn -0.274748 0.923914 0.266264
vn -0.355729 0.923914 0.140855
vn -0.355729 0.923914 0.140855
vn -0.274748 0.923914 0.266264
vn -0.159722 0.976702 0.143325
vn -0.202411 0.976702 0.071292
vn -0.202411 0.976702 0.071292
vn -0.159722 0.976702 0.143325
vn -0.000000 1.000000 0.000000
vn -0.071292 -0.976702 0.202411
vn -0.143325 -0.976702 0.159722
vn -0.000000 -1.000000 0.000000
vn -0.143325 -0.976702 0.159722
vn -0.071292 -0.976702 0.202411
vn -0.140855 -0.923914 0.355729
vn -0.266264 -0.923914 0.274748
vn -0.266264 -0.923914 0.274748
vn -0.140855 -0.923914 0.355729
vn -0.207593 -0.831554 0.515192
vn -0.388946 -0.831554 0.396533
vn -0.388946 -0.831554 0.396533
vn -0.207593 -0.831554 0.515192
vn -0.266361 -0.707231 0.654886
vn -0.496699 -0.707231 0.503104
vn -0.496699 -0.707231 0.503104
vn -0.266361 -0.707231 0.654886
vn -0.314888 -0.555709 0.769437
vn -0.585369 -0.555709 0.590365
vn -0.585369 -0.555709 0.590365
vn -0.314888 -0.555709 0.769437
vn -0.351299 -0.382802 0.854430
vn -0.651534 -0.382802 0.654954
vn -0.651534 -0.382802 0.654954
vn -0.351299 -0.382802 0.854430
vn -0.374191 -0.195159 0.906584
vn -0.692642 -0.195159 0.694378
vn -0.692642 -0.195159 0.694378
vn -0.374191 -0.195159 0.906584
vn -0.382683 -0.000000 0.923880
vn -0.707107 0.000000 0.707107
vn -0.707107 0.000000 0.707107
vn -0.382683 -0.000000 0.923880
vn -0.376459 0.195159 0.905644
vn -0.694378 0.195159 0.692642
vn -0.694378 0.195159 0.692642
vn -0.376459 0.195159 0.905644
vn -0.355767 0.382802 0.852579
vn -0.654954 0.382802 0.651534
vn -0.654954 0.382802 0.651534
vn -0.355767 0.382802 0.852579
vn -0.321415 0.555709 0.766733
vn -0.590365 0.555709 0.585369
vn -0.590365 0.555709 0.585369
vn -0.321415 0.555709 0.766733
vn -0.274729 0.707231 0.651420
vn -0.503104 0.707231 0.496699
vn -0.503104 0.707231 0.496699
vn -0.274729 0.707231 0.651420
vn -0.217506 0.831554 0.511086
vn -0.396533 0.831554 0.388946
vn -0.396533 0.831554 0.388946
vn -0.217506 0.831554 0.511086
vn -0.151939 0.923914 0.351137
vn -0.274748 0.923914 0.266264
vn -0.274748 0.923914 0.266264
vn -0.151939 0.923914 0.351137
vn -0.092715 0.976702 0.193538
vn -0.159722 0.976702 0.143325
vn -0.159722 0.976702 0.143325
vn -0.092715 0.976702 0.193538
vn -0.000000 1.000000 0.000000
vn 0.011594 -0.976702 0.214286
vn -0.071292 -0.976702 0.202411
vn -0.000000 -1.000000 0.000000
vn -0.071292 -0.976702 0.202411
vn 0.011594 -0.976702 0.214286
vn 0.005999 -0.923914 0.382553
vn -0.140855 -0.923914 0.355729
vn -0.140855 -0.923914 0.355729
vn 0.005999 -0.923914 0.382553
vn 0.005365 -0.831554 0.555418
vn -0.207593 -0.831554 0.515192
vn -0.207593 -0.831554 0.515192
vn 0.005365 -0.831554 0.555418
vn 0.004529 -0.707231 0.706968
vn -0.266361 -0.707231 0.654886
vn -0.266361 -0.707231 0.654886
vn 0.004529 -0.707231 0.706968
vn 0.003532 -0.555709 0.831369
vn -0.314888 -0.555709 0.769437
vn -0.314888 -0.555709 0.769437
vn 0.003532 -0.555709 0.831369
vn 0.002418 -0.382802 0.923827
vn -0.351299 -0.382802 0.854430
vn -0.351299 -0.382802 0.854430
vn 0.002418 -0.382802 0.923827
vn 0.001228 -0.195159 0.980771
vn -0.374191 -0.195159 0.906584
vn -0.374191 -0.195159 0.906584
vn 0.001228 -0.195159 0.980771
vn 0.000000 0.000000 1.000000
vn -0.382683 -0.000000 0.923880
vn -0.382683 -0.000000 0.923880
vn 0.000000 0.000000 1.000000
vn -0.001228 0.195159 0.980771
vn -0.376459 0.195159 0.905644
vn -0.376459 0.195159 0.905644
vn -0.001228 0.195159 0.980771
vn -0.002418 0.382802 0.923827
vn -0.355767 0.382802 0.852579
vn -0.355767 0.382802 0.852579
vn -0.002418 0.382802 0.923827
vn -0.003532 0.555709 0.831369
vn -0.321415 0.555709 0.766733
vn -0.321415 0.555709 0.766733
vn -0.003532 0.555709 0.831369
vn -0.004529 0.707231 0.706968
vn -0.274729 0.707231 0.651420
vn -0.274729 0.707231 0.651420
vn -0.004529 0.707231 0.706968
vn -0.005365 0.831554 0.555418
vn -0.217506 0.831554 0.511086
vn -0.217506 0.831554 0.511086
vn -0.005365 0.831554 0.555418
vn -0.005999 0.923914 0.382553
vn -0.151939 0.923914 0.351137
vn -0.151939 0.923914 0.351137
vn -0.005999 0.923914 0.382553
vn -0.011594 0.976702 0.214286
vn -0.092715 0.976702 0.193538
vn -0.092715 0.976702 0.193538
vn -0.011594 0.976702 0.214286
vn -0.000000 1.000000 0.000000
vn 0.092715 -0.976702 0.193538
vn 0.011594 -0.976702 0.214286
vn -0.000000 -1.000000 0.000000
vn 0.011594 -0.976702 0.214286
vn 0.092715 -0.976702 0.193538
vn 0.151939 -0.923914 0.351137
vn 0.005999 -0.923914 0.382553
vn 0.005999 -0.923914 0.382553
vn 0.151939 -0.923914 0.351137
vn 0.217506 -0.831554 0.511086
vn 0.005365 -0.831554 0.555418
vn 0.005365 -0.831554 0.555418
vn 0.217506 -0.831554 0.511086
vn 0.274729 -0.707231 0.651420
vn 0.004529 -0.707231 0.706968
vn 0.004529 -0.707231 0.706968
vn 0.274729 -0.707231 0.651420
vn 0.321415 -0.555709 0.766733
vn 0.003532 -0.555709 0.831369
vn 0.003532 -0.555709 0.831369
vn 0.321415 -0.555709 0.766733
vn 0.355767 -0.382802 0.852580
vn 0.002418 -0.382802 0.923827
vn 0.002418 -0.382802 0.923827
vn 0.355767 -0.382802 0.852580
vn 0.376459 -0.195159 0.905644
vn 0.001228 -0.195159 0.980771
vn 0.001228 -0.195159 0.980771
vn 0.376459 -0.195159 0.905644
vn 0.382683 0.000000 0.923880
vn 0.000000 0.000000 1.000000
vn 0.000000 0.000000 1.000000
vn 0.382683 0.000000 0.923880
vn 0.374191 0.195159 0.906584
vn -0.001228 0.195159 0.980771
vn -0.001228 0.195159 0.980771
vn 0.374191 0.195159 0.906584
vn 0.351299 0.382802 0.854430
vn -0.002418 0.382802 0.923827
vn -0.002418 0.382802 0.923827
vn 0.351299 0.382802 0.854430
vn 0.314888 0.555709 0.769437
vn -0.003532 0.555709 0.831369
vn -0.003532 0.555709 0.831369
vn 0.314888 0.555709 0.769437
vn 0.266361 0.707231 0.654886
vn -0.004529 0.707231 0.706968
vn -0.004529 0.707231 0.706968
vn 0.266361 0.707231 0.654886
vn 0.207593 0.831554 0.515192
vn -0.005365 0.831554 0.555418
vn -0.005365 0.831554 0.555418
vn 0.207593 0.831554 0.515192
vn 0.140855 0.923914 0.355729
vn -0.005999 0.923914 0.382553
vn -0.005999 0.923914 0.382553
vn 0.140855 0.923914 0.355729
vn 0.071292 0.976702 0.202411
vn -0.011594 0.976702 0.214286
vn -0.011594 0.976702 0.214286
vn 0.071292 0.976702 0.202411
vn -0.000000 1.000000 0.000000
vn 0.159722 -0.976702 0.143325
vn 0.092715 -0.976702 0.193538
vn -0.000000 -1.000000 0.000000
vn 0.092715 -0.976702 0.193538
vn 0.159722 -0.976702 0.143325
vn 0.274748 -0.923914 0.266264
vn 0.151939 -0.923914 0.351137
vn 0.151939 -0.923914 0.351137
vn 0.274748 -0.923914 0.266264
vn 0.396533 -0.831554 0.388946
vn 0.217506 -0.831554 0.511086
vn 0.217506 -0.831554 0.511086
vn 0.396533 -0.831554 0.388946
vn 0.503104 -0.707231 0.496699
vn 0.274729 -0.707231 0.651420
vn 0.274729 -0.707231 0.651420
vn 0.503104 -0.707231 0.496699
vn 0.590365 -0.555709 0.585369
vn 0.321415 -0.555709 0.766733
vn 0.321415 -0.555709 0.766733
vn 0.590365 -0.555709 0.585369
vn 0.654954 -0.382802 0.651534
vn 0.355767 -0.382802 0.852580
vn 0.355767 -0.382802 0.852580
vn 0.654954 -0.382802 0.651534
vn 0.694378 -0.195159 0.692642
vn 0.376459 -0.195159 0.905644
vn 0.376459 -0.195159 0.905644
vn 0.694378 -0.195159 0.692642
vn 0.707107 0.000000 0.707107
vn 0.382683 0.000000 0.923880
vn 0.382683 0.000000 0.923880
vn 0.707107 0.000000 0.707107
vn 0.692642 0.195159 0.694378
vn 0.374191 0.195159 0.906584
vn 0.374191 0.195159 0.906584
vn 0.692642 0.195159 0.694378
vn 0.651534 0.382802 0.654954
vn 0.351299 0.382802 0.854430
vn 0.351299 0.382802 0.854430
vn 0.651534 0.382802 0.654954
vn 0.585369 0.555709 0.590365
vn 0.314888 0.555709 0.769437
vn 0.314888 0.555709 0.769437
vn 0.585369 0.555709 0.590365
vn 0.496699 0.707231 0.503104
vn 0.266361 0.707231 0.654886
vn 0.266361 0.707231 0.654886
vn 0.496699 0.707231 0.503104
vn 0.388946 0.831554 0.396533
vn 0.207593 0.831554 0.515192
vn 0.207593 0.831554 0.515192
vn 0.388946 0.831554 0.396533
vn 0.266264 0.923914 0.274748
vn 0.140855 0.923914 0.355729
vn 0.140855 0.923914 0.355729
vn 0.266264 0.923914 0.274748
vn 0.143325 0.976702 0.159722
vn 0.071292 0.976702 0.202411
vn 0.071292 0.976702 0.202411
vn 0.143325 0.976702 0.159722
vn -0.000000 1.000000 0.000000
vn 0.202411 -0.976702 0.071292
vn 0.159722 -0.976702 0.143325
vn -0.000000 -1.000000 0.000000
vn 0.159722 -0.976702 0.143325
vn 0.202411 -0.976702 0.071292
vn 0.355729 -0.923914 0.140855
vn 0.274748 -0.923914 0.266264
vn 0.274748 -0.923914 0.266264
vn 0.355729 -0.923914 0.140855
vn 0.515192 -0.831554 0.207593
vn 0.396533 -0.831554 0.388946
vn 0.396533 -0.831554 0.388946
vn 0.515192 -0.831554 0.207593
vn 0.654886 -0.707231 0.266361
vn 0.503104 -0.707231 0.496699
vn 0.503104 -0.707231 0.496699
vn 0.654886 -0.707231 0.266361
vn 0.769437 -0.555709 0.314888
vn 0.590365 -0.555709 0.585369
vn 0.590365 -0.555709 0.585369
vn 0.769437 -0.555709 0.314888
vn 0.854430 -0.382802 0.351299
vn 0.654954 -0.382802 0.651534
vn 0.654954 -0.382802 0.651534
vn 0.854430 -0.382802 0.351299
vn 0.906584 -0.195159 0.374191
vn 0.694378 -0.195159 0.692642
vn 0.694378 -0.195159 0.692642
vn 0.906584 -0.195159 0.374191
vn 0.923880 -0.000000 0.382683
vn 0.707107 0.000000 0.707107
vn 0.707107 0.000000 0.707107
vn 0.923880 -0.000000 0.382683
vn 0.905644 0.195159 0.376459
vn 0.692642 0.195159 0.694378
vn 0.692642 0.195159 0.694378
vn 0.905644 0.195159 0.376459
vn 0.852579 0.382802 0.355767
vn 0.651534 0.382802 0.654954
vn 0.651534 0.382802 0.654954
vn 0.852579 0.382802 0.355767
vn 0.766733 0.555709 0.321415
vn 0.585369 0.555709 0.590365
vn 0.585369 0.555709 0.590365
vn 0.766733 0.555709 0.321415
vn 0.651420 0.707231 0.274729
vn 0.496699 0.707231 0.503104
vn 0.496699 0.707231 0.503104
vn 0.651420 0.707231 0.274729
vn 0.511086 0.831554 0.217506
vn 0.388946 0.831554 0.396533
vn 0.388946 0.831554 0.396533
vn 0.511086 0.831554 0.217506
vn 0.351137 0.923914 0.151939
vn 0.266264 0.923914 0.274748
vn 0.266264 0.923914 0.274748
vn 0.351137 0.923914 0.151939
vn 0.193538 0.976702 0.092715
vn 0.143325 0.976702 0.159722
vn 0.143325 0.976702 0.159722
vn 0.193538 0.976702 0.092715
vn -0.000000 1.000000 0.000000
vn 0.214286 -0.976702 -0.011594
vn 0.202411 -0.976702 0.071292
vn -0.000000 -1.000000 0.000000
vn 0.202411 -0.976702 0.071292
vn 0.214286 -0.976702 -0.011594
vn 0.382553 -0.923914 -0.005999
vn 0.355729 -0.923914 0.140855
vn 0.355729 -0.923914 0.140855
vn 0.382553 -0.923914 -0.005999
vn 0.555418 -0.831554 -0.005365
vn 0.515192 -0.831554 0.207593
vn 0.515192 -0.831554 0.207593
vn 0.555418 -0.831554 -0.005365
vn 0.706968 -0.707231 -0.004529
vn 0.654886 -0.707231 0.266361
vn 0.654886 -0.707231 0.266361
vn 0.706968 -0.707231 -0.004529
vn 0.831369 -0.555709 -0.003532
vn 0.769437 -0.555709 0.314888
vn 0.769437 -0.555709 0.314888
vn 0.831369 -0.555709 -0.003532
vn 0.923827 -0.382802 -0.002418
vn 0.854430 -0.382802 0.351299
vn 0.854430 -0.382802 0.351299
vn 0.923827 -0.382802 -0.002418
vn 0.980771 -0.195159 -0.001228
vn 0.906584 -0.195159 0.374191
vn 0.906584 -0.195159 0.374191
vn 0.980771 -0.195159 -0.001228
vn 1.000000 0.000000 0.000000
vn 0.923880 -0.000000 0.382683
vn 0.923880 -0.000000 0.382683
vn 1.000000 0.000000 0.000000
vn 0.980771 0.195159 0.001228
vn 0.905644 0.195159 0.376459
vn 0.905644 0.195159 0.376459
vn 0.980771 0.195159 0.001228
vn 0.923827 0.382802 0.002418
vn 0.852579 0.382802 0.355767
vn 0.852579 0.382802 0.355767
vn 0.923827 0.382802 0.002418
vn 0.831369 0.555709 0.003532
vn 0.766733 0.555709 0.321415
vn 0.766733 0.555709 0.321415
vn 0.831369 0.555709 0.003532
vn 0.706968 0.707231 0.004529
vn 0.651420 0.707231 0.274729
vn 0.651420 0.707231 0.274729
vn 0.706968 0.707231 0.004529
vn 0.555418 0.831554 0.005365
vn 0.511086 0.831554 0.217506
vn 0.511086 0.831554 0.217506
vn 0.555418 0.831554 0.005365
vn 0.382553 0.923914 0.005999
vn 0.351137 0.923914 0.151939
vn 0.351137 0.923914 0.151939
vn 0.382553 0.923914 0.005999
vn 0.214286 0.976702 0.011594
vn 0.193538 0.976702 0.092715
vn 0.193538 0.976702 0.092715
vn 0.214286 0.976702 0.011594
vn -0.000000 1.000000 0.000000
vn 0.193538 -0.976702 -0.092715
vn 0.214286 -0.976702 -0.011594
vn -0.000000 -1.000000 0.000000
vn 0.214286 -0.976702 -0.011594
vn 0.193538 -0.976702 -0.092715
vn 0.351137 -0.923914 -0.151939
vn 0.382553 -0.923914 -0.005999
vn 0.382553 -0.923914 -0.005999
vn 0.351137 -0.923914 -0.151939
vn 0.511086 -0.831554 -0.217506
vn 0.555418 -0.831554 -0.005365
vn 0.555418 -0.831554 -0.005365
vn 0.511086 -0.831554 -0.217506
vn 0.651420 -0.707231 -0.274729
vn 0.706968 -0.707231 -0.004529
vn 0.706968 -0.707231 -0.004529
vn 0.651420 -0.707231 -0.274729
vn 0.766733 -0.555709 -0.321415
vn 0.831369 -0.555709 -0.003532
vn 0.831369 -0.555709 -0.003532
vn 0.766733 -0.555709 -0.321415
vn 0.852579 -0.382802 -0.355767
vn 0.923827 -0.382802 -0.002418
vn 0.923827 -0.382802 -0.002418
vn 0.852579 -0.382802 -0.355767
vn 0.905644 -0.195159 -0.376459
vn 0.980771 -0.195159 -0.001228
vn 0.980771 -0.195159 -0.001228
vn 0.905644 -0.195159 -0.376459
vn 0.923880 0.000000 -0.382683
vn 1.000000 0.000000 0.000000
vn 1.000000 0.000000 0.000000
vn 0.923880 0.000000 -0.382683
vn 0.906584 0.195159 -0.374191
vn 0.980771 0.195159 0.001228
vn 0.980771 0.195159 0.001228
vn 0.906584 0.195159 -0.374191
vn 0.854430 0.382802 -0.351299
vn 0.923827 0.382802 0.002418
vn 0.923827 0.382802 0.002418
vn 0.854430 0.382802 -0.351299
vn 0.769437 0.555709 -0.314888
vn 0.831369 0.555709 0.003532
vn 0.831369 0.555709 0.003532
vn 0.769437 0.555709 -0.314888
vn 0.654886 0.707231 -0.266361
vn 0.706968 0.707231 0.004529
vn 0.706968 0.707231 0.004529
vn 0.654886 0.707231 -0.266361
vn 0.515192 0.831554 -0.207593
vn 0.555418 0.831554 0.005365
vn 0.555418 0.831554 0.005365
vn 0.515192 0.831554 -0.207593
vn 0.355729 0.923914 -0.140855
vn 0.382553 0.923914 0.005999
vn 0.382553 0.923914 0.005999
vn 0.355729 0.923914 -0.140855
vn 0.202411 0.976702 -0.071292
vn 0.214286 0.976702 0.011594
vn 0.214286 0.976702 0.011594
vn 0.202411 0.976702 -0.071292
vn -0.000000 1.000000 0.000000
vn 0.143325 -0.976702 -0.159722
vn 0.193538 -0.976702 -0.092715
vn -0.000000 -1.000000 0.000000
vn 0.193538 -0.976702 -0.092715
vn 0.143325 -0.976702 -0.159722
vn 0.266264 -0.923914 -0.274748
vn 0.351137 -0.923914 -0.151939
vn 0.351137 -0.923914 -0.151939
vn 0.266264 -0.923914 -0.274748
vn 0.388946 -0.831554 -0.396533
vn 0.511086 -0.831554 -0.217506
vn 0.511086 -0.831554 -0.217506
vn 0.388946 -0.831554 -0.396533
vn 0.496699 -0.707231 -0.503104
vn 0.651420 -0.707231 -0.274729
vn 0.651420 -0.707231 -0.274729
vn 0.496699 -0.707231 -0.503104
vn 0.585369 -0.555709 -0.590365
vn 0.766733 -0.555709 -0.321415
vn 0.766733 -0.555709 -0.321415
vn 0.585369 -0.555709 -0.590365
vn 0.651534 -0.382802 -0.654954
vn 0.852579 -0.382802 -0.355767
vn 0.852579 -0.382802 -0.355767
vn 0.651534 -0.382802 -0.654954
vn 0.692642 -0.195159 -0.694378
vn 0.905644 -0.195159 -0.376459
vn 0.905644 -0.195159 -0.376459
vn 0.692642 -0.195159 -0.694378
vn 0.707107 0.000000 -0.707107
vn 0.923880 0.000000 -0.382683
vn 0.923880 0.000000 -0.382683
vn 0.707107 0.000000 -0.707107
vn 0.694378 0.195159 -0.692642
vn 0.906584 0.195159 -0.374191
vn 0.906584 0.195159 -0.374191
vn 0.694378 0.195159 -0.692642
vn 0.654954 0.382802 -0.651534
vn 0.854430 0.382802 -0.351299
vn 0.854430 0.382802 -0.351299
vn 0.654954 0.382802 -0.651534
vn 0.590365 0.555709 -0.585369
vn 0.769437 0.555709 -0.314888
vn 0.769437 0.555709 -0.314888
vn 0.590365 0.555709 -0.585369
vn 0.503104 0.707231 -0.496699
vn 0.654886 0.707231 -0.266361
vn 0.654886 0.707231 -0.266361
vn 0.503104 0.707231 -0.496699
vn 0.396533 0.831554 -0.388946
vn 0.515192 0.831554 -0.207593
vn 0.515192 0.831554 -0.207593
vn 0.396533 0.831554 -0.388946
vn 0.274748 0.923914 -0.266264
vn 0.355729 0.923914 -0.140855
vn 0.355729 0.923914 -0.140855
vn 0.274748 0.923914 -0.266264
vn 0.159722 0.976702 -0.143325
vn 0.202411 0.976702 -0.071292
vn 0.202411 0.976702 -0.071292
vn 0.159722 0.976702 -0.143325
vn -0.000000 1.000000 0.000000
vn 0.071292 -0.976702 -0.202411
vn 0.143325 -0.976702 -0.159722
vn -0.000000 -1.000000 0.000000
vn 0.143325 -0.976702 -0.159722
vn 0.071292 -0.976702 -0.202411
vn 0.140855 -0.923914 -0.355729
vn 0.266264 -0.923914 -0.274748
vn 0.266264 -0.923914 -0.274748
vn 0.140855 -0.923914 -0.355729
vn 0.207593 -0.831554 -0.515192
vn 0.388946 -0.831554 -0.396533
vn 0.388946 -0.831554 -0.396533
vn 0.207593 -0.831554 -0.515192
vn 0.266361 -0.707231 -0.654886
vn 0.496699 -0.707231 -0.503104
vn 0.496699 -0.707231 -0.503104
vn 0.266361 -0.707231 -0.654886
vn 0.314888 -0.555709 -0.769437
vn 0.585369 -0.555709 -0.590365
vn 0.585369 -0.555709 -0.590365
vn 0.314888 -0.555709 -0.769437
vn 0.351299 -0.382802 -0.854430
vn 0.651534 -0.382802 -0.654954
vn 0.651534 -0.382802 -0.654954
vn 0.351299 -0.382802 -0.854430
vn 0.374191 -0.195159 -0.906584
vn 0.692642 -0.195159 -0.694378
vn 0.692642 -0.195159 -0.694378
vn 0.374191 -0.195159 -0.906584
vn 0.382683 -0.000000 -0.923880
vn 0.707107 0.000000 -0.707107
vn 0.707107 0.000000 -0.707107
vn 0.382683 -0.000000 -0.923880
vn 0.376459 0.195159 -0.905644
vn 0.694378 0.195159 -0.692642
vn 0.694378 0.195159 -0.692642
vn 0.376459 0.195159 -0.905644
vn 0.355767 0.382802 -0.852579
vn 0.654954 0.382802 -0.651534
vn 0.654954 0.382802 -0.651534
vn 0.355767 0.382802 -0.852579
vn 0.321415 0.555709 -0.766733
vn 0.590365 0.555709 -0.585369
vn 0.590365 0.555709 -0.585369
vn 0.321415 0.555709 -0.766733
vn 0.274729 0.707231 -0.651420
vn 0.503104 0.707231 -0.496699
vn 0.503104 0.707231 -0.496699
vn 0.274729 0.707231 -0.651420
vn 0.217506 0.831554 -0.511086
vn 0.396533 0.831554 -0.388946
vn 0.396533 0.831554 -0.388946
vn 0.217506 0.831554 -0.511086
vn 0.151939 0.923914 -0.351137
vn 0.274748 0.923914 -0.266264
vn 0.274748 0.923914 -0.266264
vn 0.151939 0.923914 -0.351137
vn 0.092715 0.976702 -0.193538
vn 0.159722 0.976702 -0.143325
vn 0.159722 0.976702 -0.143325
vn 0.092715 0.976702 -0.193538
vn -0.000000 1.000000 0.000000
vn -0.011594 -0.976702 -0.214286
vn 0.071292 -0.976702 -0.202411
vn -0.000000 -1.000000 0.000000
vn 0.071292 -0.976702 -0.202411
vn -0.011594 -0.976702 -0.214286
vn -0.005999 -0.923914 -0.382553
vn 0.140855 -0.923914 -0.355729
vn 0.140855 -0.923914 -0.355729
vn -0.005999 -0.923914 -0.382553
vn -0.005365 -0.831554 -0.555418
vn 0.207593 -0.831554 -0.515192
vn 0.207593 -0.831554 -0.515192
vn -0.005365 -0.831554 -0.555418
vn -0.004529 -0.707231 -0.706968
vn 0.266361 -0.707231 -0.654886
vn 0.266361 -0.707231 -0.654886
vn -0.004529 -0.707231 -0.706968
vn -0.003532 -0.555709 -0.831369
vn 0.314888 -0.555709 -0.769437
vn 0.314888 -0.555709 -0.769437
vn -0.003532 -0.555709 -0.831369
vn -0.002418 -0.382802 -0.923827
vn 0.351299 -0.382802 -0.854430
vn 0.351299 -0.382802 -0.854430
vn -0.002418 -0.382802 -0.923827
vn -0.001228 -0.195159 -0.980771
vn 0.374191 -0.195159 -0.906584
vn 0.374191 -0.195159 -0.906584
vn -0.001228 -0.195159 -0.980771
vn 0.000000 0.000000 -1.000000
vn 0.382683 -0.000000 -0.923880
vn 0.382683 -0.000000 -0.923880
vn 0.000000 0.000000 -1.000000
vn 0.001228 0.195159 -0.980771
vn 0.376459 0.195159 -0.905644
vn 0.376459 0.195159 -0.905644
vn 0.001228 0.195159 -0.980771
vn 0.002418 0.382802 -0.923827
vn 0.355767 0.382802 -0.852579
vn 0.355767 0.382802 -0.852579
vn 0.002418 0.382802 -0.923827
vn 0.003532 0.555709 -0.831369
vn 0.321415 0.555709 -0.766733
vn 0.321415 0.555709 -0.766733
vn 0.003532 0.555709 -0.831369
vn 0.004529 0.707231 -0.706968
vn 0.274729 0.707231 -0.651420
vn 0.274729 0.707231 -0.651420
vn 0.004529 0.707231 -0.706968
vn 0.005365 0.831554 -0.555418
vn 0.217506 0.831554 -0.511086
vn 0.217506 0.831554 -0.511086
vn 0.005365 0.831554 -0.555418
vn 0.005999 0.923914 -0.382553
vn 0.151939 0.923914 -0.351137
vn 0.151939 0.923914 -0.351137
vn 0.005999 0.923914 -0.382553
vn 0.011594 0.976702 -0.214286
vn 0.092715 0.976702 -0.193538
vn 0.092715 0.976702 -0.193538
vn 0.011594 0.976702 -0.214286
vn -0.000000 1.000000 0.000000
vn -0.092715 -0.976702 -0.193538
vn -0.011594 -0.976702 -0.214286
vn -0.000000 -1.000000 0.000000
vn -0.011594 -0.976702 -0.214286
vn -0.092715 -0.976702 -0.193538
vn -0.151939 -0.923914 -0.351137
vn -0.005999 -0.923914 -0.382553
vn -0.005999 -0.923914 -0.382553
vn -0.151939 -0.923914 -0.351137
vn -0.217506 -0.831554 -0.511086
vn -0.005365 -0.831554 -0.555418
vn -0.005365 -0.831554 -0.555418
vn -0.217506 -0.831554 -0.511086
vn -0.274729 -0.707231 -0.651420
vn -0.004529 -0.707231 -0.706968
vn -0.004529 -0.707231 -0.706968
vn -0.274729 -0.707231 -0.651420
vn -0.321415 -0.555709 -0.766733
vn -0.003532 -0.555709 -0.831369
vn -0.003532 -0.555709 -0.831369
vn -0.321415 -0.555709 -0.766733
vn -0.355767 -0.382802 -0.852580
vn -0.002418 -0.382802 -0.923827
vn -0.002418 -0.382802 -0.923827
vn -0.355767 -0.382802 -0.852580
vn -0.376459 -0.195159 -0.905644
vn -0.001228 -0.195159 -0.980771
vn -0.001228 -0.195159 -0.980771
vn -0.376459 -0.195159 -0.905644
vn -0.382683 0.000000 -0.923880
vn 0.000000 0.000000 -1.000000
vn 0.000000 0.000000 -1.000000
vn -0.382683 0.000000 -0.923880
vn -0.374191 0.195159 -0.906584
vn 0.001228 0.195159 -0.980771
vn 0.001228 0.195159 -0.980771
vn -0.374191 0.195159 -0.906584
vn -0.351299 0.382802 -0.854430
vn 0.002418 0.382802 -0.923827
vn 0.002418 0.382802 -0.923827
vn -0.351299 0.382802 -0.854430
vn -0.314888 0.555709 -0.769437
vn 0.003532 0.555709 -0.831369
vn 0.003532 0.555709 -0.831369
vn -0.314888 0.555709 -0.769437
vn -0.266361 0.707231 -0.654886
vn 0.004529 0.707231 -0.706968
vn 0.004529 0.707231 -0.706968
vn -0.266361 0.707231 -0.654886
vn -0.207593 0.831554 -0.515192
vn 0.005365 0.831554 -0.555418
vn 0.005365 0.831554 -0.555418
vn -0.207593 0.831554 -0.515192
vn -0.140855 0.923914 -0.355729
vn 0.005999 0.923914 -0.382553
vn 0.005999 0.923914 -0.382553
vn -0.140855 0.923914 -0.355729
vn -0.071292 0.976702 -0.202411
vn 0.011594 0.976702 -0.214286
vn 0.011594 0.976702 -0.214286
vn -0.071292 0.976702 -0.202411
vn -0.000000 1.000000 0.000000
vn -0.159722 -0.976702 -0.143325
vn -0.092715 -0.976702 -0.193538
vn -0.000000 -1.000000 0.000000
vn -0.092715 -0.976702 -0.193538
vn -0.159722 -0.976702 -0.143325
vn -0.274748 -0.923914 -0.266264
vn -0.151939 -0.923914 -0.351137
vn -0.151939 -0.923914 -0.351137
vn -0.274748 -0.923914 -0.266264
vn -0.396533 -0.831554 -0.388946
vn -0.217506 -0.831554 -0.511086
vn -0.217506 -0.831554 -0.511086
vn -0.396533 -0.831554 -0.388946
vn -0.503104 -0.707231 -0.496699
vn -0.274729 -0.707231 -0.651420
vn -0.274729 -0.707231 -0.651420
vn -0.503104 -0.707231 -0.496699
vn -0.590365 -0.555709 -0.585369
vn -0.321415 -0.555709 -0.766733
vn -0.321415 -0.555709 -0.766733
vn -0.590365 -0.555709 -0.585369
vn -0.654954 -0.382802 -0.651534
vn -0.355767 -0.382802 -0.852580
vn -0.355767 -0.382802 -0.852580
vn -0.654954 -0.382802 -0.651534
vn -0.694378 -0.195159 -0.692642
vn -0.376459 -0.195159 -0.905644
vn -0.376459 -0.195159 -0.905644
vn -0.694378 -0.195159 -0.692642
vn -0.707107 0.000000 -0.707107
vn -0.382683 0.000000 -0.923880
vn -0.382683 0.000000 -0.923880
vn -0.707107 0.000000 -0.707107
vn -0.692642 0.195159 -0.694378
vn -0.374191 0.195159 -0.906584
vn -0.374191 0.195159 -0.906584
vn -0.692642 0.195159 -0.694378
vn -0.651534 0.382802 -0.654954
vn -0.351299 0.382802 -0.854430
vn -0.351299 0.382802 -0.854430
vn -0.651534 0.382802 -0.654954
vn -0.585369 0.555709 -0.590365
vn -0.314888 0.555709 -0.769437
vn -0.314888 0.555709 -0.769437
vn -0.585369 0.555709 -0.590365
vn -0.496699 0.707231 -0.503104
vn -0.266361 0.707231 -0.654886
vn -0.266361 0.707231 -0.654886
vn -0.496699 0.707231 -0.503104
vn -0.388946 0.831554 -0.396533
vn -0.207593 0.831554 -0.515192
vn -0.207593 0.831554 -0.515192
vn -0.388946 0.831554 -0.396533
vn -0.266264 0.923914 -0.274748
vn -0.140855 0.923914 -0.355729
vn -0.140855 0.923914 -0.355729
vn -0.266264 0.923914 -0.274748
vn -0.143325 0.976702 -0.159722
vn -0.071292 0.976702 -0.202411
vn -0.071292 0.976702 -0.202411
vn -0.143325 0.976702 -0.159722
vn -0.000000 1.000000 0.000000
vn -0.202411 -0.976702 -0.071292
vn -0.159722 -0.976702 -0.143325
vn -0.000000 -1.000000 0.000000
vn -0.159722 -0.976702 -0.143325
vn -0.202411 -0.976702 -0.071292
vn -0.355729 -0.923914 -0.140855
vn -0.274748 -0.923914 -0.266264
vn -0.274748 -0.923914 -0.266264
vn -0.355729 -0.923914 -0.140855
vn -0.515192 -0.831554 -0.207593
vn -0.396533 -0.831554 -0.388946
vn -0.396533 -0.831554 -0.388946
vn -0.515192 -0.831554 -0.207593
vn -0.654886 -0.707231 -0.266361
vn -0.503104 -0.707231 -0.496699
vn -0.503104 -0.707231 -0.496699
vn -0.654886 -0.707231 -0.266361
vn -0.769437 -0.555709 -0.314888
vn -0.590365 -0.555709 -0.585369
vn -0.590365 -0.555709 -0.585369
vn -0.769437 -0.555709 -0.314888
vn -0.854430 -0.382802 -0.351299
vn -0.654954 -0.382802 -0.651534
vn -0.654954 -0.382802 -0.651534
vn -0.854430 -0.382802 -0.351299
vn -0.906584 -0.195159 -0.374191
vn -0.694378 -0.195159 -0.692642
vn -0.694378 -0.195159 -0.692642
vn -0.906584 -0.195159 -0.374191
vn -0.923880 -0.000000 -0.382683
vn -0.707107 0.000000 -0.707107
vn -0.707107 0.000000 -0.707107
vn -0.923880 -0.000000 -0.382683
vn -0.905644 0.195159 -0.376459
vn -0.692642 0.195159 -0.694378
vn -0.692642 0.195159 -0.694378
vn -0.905644 0.195159 -0.376459
vn -0.852579 0.382802 -0.355767
vn -0.651534 0.382802 -0.654954
vn -0.651534 0.382802 -0.654954
vn -0.852579 0.382802 -0.355767
vn -0.766733 0.555709 -0.321415
vn -0.585369 0.555709 -0.590365
vn -0.585369 0.555709 -0.590365
vn -0.766733 0.555709 -0.321415
vn -0.651420 0.707231 -0.274729
vn -0.496699 0.707231 -0.503104
vn -0.496699 0.707231 -0.503104
vn -0.651420 0.707231 -0.274729
vn -0.511086 0.831554 -0.217506
vn -0.388946 0.831554 -0.396533
vn -0.388946 0.831554 -0.396533
vn -0.511086 0.831554 -0.217506
vn -0.351137 0.923914 -0.151939
vn -0.266264 0.923914 -0.274748
vn -0.266264 0.923914 -0.274748
vn -0.351137 0.923914 -0.151939
vn -0.193538 0.976702 -0.092715
vn -0.143325 0.976702 -0.159722
vn -0.143325 0.976702 -0.159722
vn -0.193538 0.976702 -0.092715
vn -0.000000 1.000000 0.000000
vn -0.214286 -0.976702 0.011594
vn -0.202411 -0.976702 -0.071292
vn -0.000000 -1.000000 0.000000
vn -0.202411 -0.976702 -0.071292
vn -0.214286 -0.976702 0.011594
vn -0.382553 -0.923914 0.005999
vn -0.355729 -0.923914 -0.140855
vn -0.355729 -0.923914 -0.140855
vn -0.382553 -0.923914 0.005999
vn -0.555418 -0.831554 0.005365
vn -0.515192 -0.831554 -0.207593
vn -0.515192 -0.831554 -0.207593
vn -0.555418 -0.831554 0.005365
vn -0.706968 -0.707231 0.004529
vn -0.654886 -0.707231 -0.266361
vn -0.654886 -0.707231 -0.266361
vn -0.706968 -0.707231 0.004529
vn -0.831369 -0.555709 0.003532
vn -0.769437 -0.555709 -0.314888
vn -0.769437 -0.555709 -0.314888
vn -0.831369 -0.555709 0.003532
vn -0.923827 -0.382802 0.002418
vn -0.854430 -0.382802 -0.351299
vn -0.854430 -0.382802 -0.351299
vn -0.923827 -0.382802 0.002418
vn -0.980771 -0.195159 0.001228
vn -0.906584 -0.195159 -0.374191
vn -0.906584 -0.195159 -0.374191
vn -0.980771 -0.195159 0.001228
vn -1.000000 0.000000 -0.000000
vn -0.923880 -0.000000 -0.382683
vn -0.923880 -0.000000 -0.382683
vn -1.000000 0.000000 -0.000000
vn -0.980771 0.195159 -0.001228
vn -0.905644 0.195159 -0.376459
vn -0.905644 0.195159 -0.376459
vn -0.980771 0.195159 -0.001228
vn -0.923827 0.382802 -0.002418
vn -0.852579 0.382802 -0.355767
vn -0.852579 0.382802 -0.355767
vn -0.923827 0.382802 -0.002418
vn -0.831369 0.555709 -0.003532
vn -0.766733 0.555709 -0.321415
vn -0.766733 0.555709 -0.321415
vn -0.831369 0.555709 -0.003532
vn -0.706968 0.707231 -0.004529
vn -0.651420 0.707231 -0.274729
vn -0.651420 0.707231 -0.274729
vn -0.706968 0.707231 -0.004529
vn -0.555418 0.831554 -0.005365
vn -0.511086 0.831554 -0.217506
vn -0.511086 0.831554 -0.217506
vn -0.555418 0.831554 -0.005365
vn -0.382553 0.923914 -0.005999
vn -0.351137 0.923914 -0.151939
vn -0.351137 0.923914 -0.151939
vn -0.382553 0.923914 -0.005999
vn -0.214286 0.976702 -0.011594
vn -0.193538 0.976702 -0.092715
vn -0.193538 0.976702 -0.092715
vn -0.214286 0.976702 -0.011594
vn -0.000000 1.000000 0.000000
vn -0.214286 -0.976702 0.011594
vn -0.351137 -0.923914 0.151939
vn -0.382553 -0.923914 0.005999
vn -0.511086 -0.831554 0.217506
vn -0.555418 -0.831554 0.005365
vn -0.651420 -0.707231 0.274729
vn -0.706968 -0.707231 0.004529
vn -0.766733 -0.555709 0.321415
vn -0.831369 -0.555709 0.003532
vn -0.852579 -0.382802 0.355767
vn -0.923827 -0.382802 0.002418
vn -0.905644 -0.195159 0.376459
vn -0.980771 -0.195159 0.001228
vn -0.923880 0.000000 0.382683
vn -1.000000 0.000000 -0.000000
vn -0.906584 0.195159 0.374191
vn -0.980771 0.195159 -0.001228
vn -0.854430 0.382802 0.351299
vn -0.923827 0.382802 -0.002418
vn -0.769437 0.555709 0.314888
vn -0.831369 0.555709 -0.003532
vn -0.654886 0.707231 0.266361
vn -0.706968 0.707231 -0.004529
vn -0.515192 0.831554 0.207593
vn -0.555418 0.831554 -0.005365
vn -0.355729 0.923914 0.140855
vn -0.382553 0.923914 -0.005999
vn -0.202411 0.976702 0.071292
vn -0.193538 -0.976702 0.092715
vn -0.266264 -0.923914 0.274748
vn -0.351137 -0.923914 0.151939
vn -0.388946 -0.831554 0.396533
vn -0.511086 -0.831554 0.217506
vn -0.496699 -0.707231 0.503104
vn -0.651420 -0.707231 0.274729
vn -0.585369 -0.555709 0.590365
vn -0.766733 -0.555709 0.321415
vn -0.651534 -0.382802 0.654954
vn -0.852579 -0.382802 0.355767
vn -0.692642 -0.195159 0.694378
vn -0.905644 -0.195159 0.376459
vn -0.707107 0.000000 0.707107
vn -0.923880 0.000000 0.382683
vn -0.694378 0.195159 0.692642
vn -0.906584 0.195159 0.374191
vn -0.654954 0.382802 0.651534
vn -0.854430 0.382802 0.351299
vn -0.590365 0.555709 0.585369
vn -0.769437 0.555709 0.314888
vn -0.503104 0.707231 0.496699
vn -0.654886 0.707231 0.266361
vn -0.396533 0.831554 0.388946
vn -0.515192 0.831554 0.207593
vn -0.274748 0.923914 0.266264
vn -0.355729 0.923914 0.140855
vn -0.159722 0.976702 0.143325
vn -0.143325 -0.976702 0.159722
vn -0.140855 -0.923914 0.355729
vn -0.266264 -0.923914 0.274748
vn -0.207593 -0.831554 0.515192
vn -0.388946 -0.831554 0.396533
vn -0.266361 -0.707231 0.654886
vn -0.496699 -0.707231 0.503104
vn -0.314888 -0.555709 0.769437
vn -0.585369 -0.555709 0.590365
vn -0.351299 -0.382802 0.854430
vn -0.651534 -0.382802 0.654954
vn -0.374191 -0.195159 0.906584
vn -0.692642 -0.195159 0.694378
vn -0.382683 -0.000000 0.923880
vn -0.707107 0.000000 0.707107
vn -0.376459 0.195159 0.905644
vn -0.694378 0.195159 0.692642
vn -0.355767 0.382802 0.852579
vn -0.654954 0.382802 0.651534
vn -0.321415 0.555709 0.766733
vn -0.590365 0.555709 0.585369
vn -0.274729 0.707231 0.651420
vn -0.503104 0.707231 0.496699
vn -0.217506 0.831554 0.511086
vn -0.396533 0.831554 0.388946
vn -0.151939 0.923914 0.351137
vn -0.274748 0.923914 0.266264
vn -0.092715 0.976702 0.193538
vn -0.071292 -0.976702 0.202411
vn 0.005999 -0.923914 0.382553
vn -0.140855 -0.923914 0.355729
vn 0.005365 -0.831554 0.555418
vn -0.207593 -0.831554 0.515192
vn 0.004529 -0.707231 0.706968
vn -0.266361 -0.707231 0.654886
vn 0.003532 -0.555709 0.831369
vn -0.314888 -0.555709 0.769437
vn 0.002418 -0.382802 0.923827
vn -0.351299 -0.382802 0.854430
vn 0.001228 -0.195159 0.980771
vn -0.374191 -0.195159 0.906584
vn 0.000000 0.000000 1.000000
vn -0.382683 -0.000000 0.923880
vn -0.001228 0.195159 0.980771
vn -0.376459 0.195159 0.905644
vn -0.002418 0.382802 0.923827
vn -0.355767 0.382802 0.852579
vn -0.003532 0.555709 0.831369
vn -0.321415 0.555709 0.766733
vn -0.004529 0.707231 0.706968
vn -0.274729 0.707231 0.651420
vn -0.005365 0.831554 0.555418
vn -0.217506 0.831554 0.511086
vn -0.005999 0.923914 0.382553
vn -0.151939 0.923914 0.351137
vn -0.011594 0.976702 0.214286
vn 0.011594 -0.976702 0.214286
vn 0.151939 -0.923914 0.351137
vn 0.005999 -0.923914 0.382553
vn 0.217506 -0.831554 0.511086
vn 0.005365 -0.831554 0.555418
vn 0.274729 -0.707231 0.651420
vn 0.004529 -0.707231 0.706968
vn 0.321415 -0.555709 0.766733
vn 0.003532 -0.555709 0.831369
vn 0.355767 -0.382802 0.852580
vn 0.002418 -0.382802 0.923827
vn 0.376459 -0.195159 0.905644
vn 0.001228 -0.195159 0.980771
vn 0.382683 0.000000 0.923880
vn 0.000000 0.000000 1.000000
vn 0.374191 0.195159 0.906584
vn -0.001228 0.195159 0.980771
vn 0.351299 0.382802 0.854430
vn -0.002418 0.382802 0.923827
vn 0.314888 0.555709 0.769437
vn -0.003532 0.555709 0.831369
vn 0.266361 0.707231 0.654886
vn -0.004529 0.707231 0.706968
vn 0.207593 0.831554 0.515192
vn -0.005365 0.831554 0.555418
vn 0.140855 0.923914 0.355729
vn -0.005999 0.923914 0.382553
vn 0.071292 0.976702 0.202411
vn 0.092715 -0.976702 0.193538
vn 0.274748 -0.923914 0.266264
vn 0.151939 -0.923914 0.351137
vn 0.396533 -0.831554 0.388946
vn 0.217506 -0.831554 0.511086
vn 0.503104 -0.707231 0.496699
vn 0.274729 -0.707231 0.651420
vn 0.590365 -0.555709 0.585369
vn 0.321415 -0.555709 0.766733
vn 0.654954 -0.382802 0.651534
vn 0.355767 -0.382802 0.852580
vn 0.694378 -0.195159 0.692642
vn 0.376459 -0.195159 0.905644
vn 0.707107 0.000000 0.707107
vn 0.382683 0.000000 0.923880
vn 0.692642 0.195159 0.694378
vn 0.374191 0.195159 0.906584
vn 0.651534 0.382802 0.654954
vn 0.351299 0.382802 0.854430
vn 0.585369 0.555709 0.590365
vn 0.314888 0.555709 0.769437
vn 0.496699 0.707231 0.503104
vn 0.266361 0.707231 0.654886
vn 0.388946 0.831554 0.396533
vn 0.207593 0.831554 0.515192
vn 0.266264 0.923914 0.274748
vn 0.140855 0.923914 0.355729
vn 0.143325 0.976702 0.159722
vn 0.159722 -0.976702 0.143325
vn 0.355729 -0.923914 0.140855
vn 0.274748 -0.923914 0.266264
vn 0.515192 -0.831554 0.207593
vn 0.396533 -0.831554 0.388946
vn 0.654886 -0.707231 0.266361
vn 0.503104 -0.707231 0.496699
vn 0.769437 -0.555709 0.314888
vn 0.590365 -0.555709 0.585369
vn 0.854430 -0.382802 0.351299
vn 0.654954 -0.382802 0.651534
vn 0.906584 -0.195159 0.374191
vn 0.694378 -0.195159 0.692642
vn 0.923880 -0.000000 0.382683
vn 0.707107 0.000000 0.707107
vn 0.905644 0.195159 0.376459
vn 0.692642 0.195159 0.694378
vn 0.852579 0.382802 0.355767
vn 0.651534 0.382802 0.654954
vn 0.766733 0.555709 0.321415
vn 0.585369 0.555709 0.590365
vn 0.651420 0.707231 0.274729
vn 0.496699 0.707231 0.503104
vn 0.511086 0.831554 0.217506
vn 0.388946 0.831554 0.396533
vn 0.351137 0.923914 0.151939
vn 0.266264 0.923914 0.274748
vn 0.193538 0.976702 0.092715
vn 0.202411 -0.976702 0.071292
vn 0.382553 -0.923914 -0.005999
vn 0.355729 -0.923914 0.140855
vn 0.555418 -0.831554 -0.005365
vn 0.515192 -0.831554 0.207593
vn 0.706968 -0.707231 -0.004529
vn 0.654886 -0.707231 0.266361
vn 0.831369 -0.555709 -0.003532
vn 0.769437 -0.555709 0.314888
vn 0.923827 -0.382802 -0.002418
vn 0.854430 -0.382802 0.351299
vn 0.980771 -0.195159 -0.001228
vn 0.906584 -0.195159 0.374191
vn 1.000000 0.000000 0.000000
vn 0.923880 -0.000000 0.382683
vn 0.980771 0.195159 0.001228
vn 0.905644 0.195159 0.376459
vn 0.923827 0.382802 0.002418
vn 0.852579 0.382802 0.355767
vn 0.831369 0.555709 0.003532
vn 0.766733 0.555709 0.321415
vn 0.706968 0.707231 0.004529
vn 0.651420 0.707231 0.274729
vn 0.555418 0.831554 0.005365
vn 0.511086 0.831554 0.217506
vn 0.382553 0.923914 0.005999
vn 0.351137 0.923914 0.151939
vn 0.214286 0.976702 0.011594
vn 0.214286 -0.976702 -0.011594
vn 0.351137 -0.923914 -0.151939
vn 0.382553 -0.923914 -0.005999
vn 0.511086 -0.831554 -0.217506
vn 0.555418 -0.831554 -0.005365
vn 0.651420 -0.707231 -0.274729
vn 0.706968 -0.707231 -0.004529
vn 0.766733 -0.555709 -0.321415
vn 0.831369 -0.555709 -0.003532
vn 0.852579 -0.382802 -0.355767
vn 0.923827 -0.382802 -0.002418
vn 0.905644 -0.195159 -0.376459
vn 0.980771 -0.195159 -0.001228
vn 0.923880 0.000000 -0.382683
vn 1.000000 0.000000 0.000000
vn 0.906584 0.195159 -0.374191
vn 0.980771 0.195159 0.001228
vn 0.854430 0.382802 -0.351299
vn 0.923827 0.382802 0.002418
vn 0.769437 0.555709 -0.314888
vn 0.831369 0.555709 0.003532
vn 0.654886 0.707231 -0.266361
vn 0.706968 0.707231 0.004529
vn 0.515192 0.831554 -0.207593
vn 0.555418 0.831554 0.005365
vn 0.355729 0.923914 -0.140855
vn 0.382553 0.923914 0.005999
vn 0.202411 0.976702 -0.071292
vn 0.193538 -0.976702 -0.092715
vn 0.266264 -0.923914 -0.274748
vn 0.351137 -0.923914 -0.151939
vn 0.388946 -0.831554 -0.396533
vn 0.511086 -0.831554 -0.217506
vn 0.496699 -0.707231 -0.503104
vn 0.651420 -0.707231 -0.274729
vn 0.585369 -0.555709 -0.590365
vn 0.766733 -0.555709 -0.321415
vn 0.651534 -0.382802 -0.654954
vn 0.852579 -0.382802 -0.355767
vn 0.692642 -0.195159 -0.694378
vn 0.905644 -0.195159 -0.376459
vn 0.707107 0.000000 -0.707107
vn 0.923880 0.000000 -0.382683
vn 0.694378 0.195159 -0.692642
vn 0.906584 0.195159 -0.374191
vn 0.654954 0.382802 -0.651534
vn 0.854430 0.382802 -0.351299
vn 0.590365 0.555709 -0.585369
vn 0.769437 0.555709 -0.314888
vn 0.503104 0.707231 -0.496699
vn 0.654886 0.707231 -0.266361
vn 0.396533 0.831554 -0.388946
vn 0.515192 0.831554 -0.207593
vn 0.274748 0.923914 -0.266264
vn 0.355729 0.923914 -0.140855
vn 0.159722 0.976702 -0.143325
vn 0.143325 -0.976702 -0.159722
vn 0.140855 -0.923914 -0.355729
vn 0.266264 -0.923914 -0.274748
vn 0.207593 -0.831554 -0.515192
vn 0.388946 -0.831554 -0.396533
vn 0.266361 -0.707231 -0.654886
vn 0.496699 -0.707231 -0.503104
vn 0.314888 -0.555709 -0.769437
vn 0.585369 -0.555709 -0.590365
vn 0.351299 -0.382802 -0.854430
vn 0.651534 -0.382802 -0.654954
vn 0.374191 -0.195159 -0.906584
vn 0.692642 -0.195159 -0.694378
vn 0.382683 -0.000000 -0.923880
vn 0.707107 0.000000 -0.707107
vn 0.376459 0.195159 -0.905644
vn 0.694378 0.195159 -0.692642
vn 0.355767 0.382802 -0.852579
vn 0.654954 0.382802 -0.651534
vn 0.321415 0.555709 -0.766733
vn 0.590365 0.555709 -0.585369
vn 0.274729 0.707231 -0.651420
vn 0.503104 0.707231 -0.496699
vn 0.217506 0.831554 -0.511086
vn 0.396533 0.831554 -0.388946
vn 0.151939 0.923914 -0.351137
vn 0.274748 0.923914 -0.266264
vn 0.092715 0.976702 -0.193538
vn 0.071292 -0.976702 -0.202411
vn -0.005999 -0.923914 -0.382553
vn 0.140855 -0.923914 -0.355729
vn -0.005365 -0.831554 -0.555418
vn 0.207593 -0.831554 -0.515192
vn -0.004529 -0.707231 -0.706968
vn 0.266361 -0.707231 -0.654886
vn -0.003532 -0.555709 -0.831369
vn 0.314888 -0.555709 -0.769437
vn -0.002418 -0.382802 -0.923827
vn 0.351299 -0.382802 -0.854430
vn -0.001228 -0.195159 -0.980771
vn 0.374191 -0.195159 -0.906584
vn 0.000000 0.000000 -1.000000
vn 0.382683 -0.000000 -0.923880
vn 0.001228 0.195159 -0.980771
vn 0.376459 0.195159 -0.905644
vn 0.002418 0.382802 -0.923827
vn 0.355767 0.382802 -0.852579
vn 0.003532 0.555709 -0.831369
vn 0.321415 0.555709 -0.766733
vn 0.004529 0.707231 -0.706968
vn 0.274729 0.707231 -0.651420
vn 0.005365 0.831554 -0.555418
vn 0.217506 0.831554 -0.511086
vn 0.005999 0.923914 -0.382553
vn 0.151939 0.923914 -0.351137
vn 0.011594 0.976702 -0.214286
vn -0.011594 -0.976702 -0.214286
vn -0.151939 -0.923914 -0.351137
vn -0.005999 -0.923914 -0.382553
vn -0.217506 -0.831554 -0.511086
vn -0.005365 -0.831554 -0.555418
vn -0.274729 -0.707231 -0.651420
vn -0.004529 -0.707231 -0.706968
vn -0.321415 -0.555709 -0.766733
vn -0.003532 -0.555709 -0.831369
vn -0.355767 -0.382802 -0.852580
vn -0.002418 -0.382802 -0.923827
vn -0.376459 -0.195159 -0.905644
vn -0.001228 -0.195159 -0.980771
vn -0.382683 0.000000 -0.923880
vn 0.000000 0.000000 -1.000000
vn -0.374191 0.195159 -0.906584
vn 0.001228 0.195159 -0.980771
vn -0.351299 0.382802 -0.854430
vn 0.002418 0.382802 -0.923827
vn -0.314888 0.555709 -0.769437
vn 0.003532 0.555709 -0.831369
vn -0.266361 0.707231 -0.654886
vn 0.004529 0.707231 -0.706968
vn -0.207593 0.831554 -0.515192
vn 0.005365 0.831554 -0.555418
vn -0.140855 0.923914 -0.355729
vn 0.005999 0.923914 -0.382553
vn -0.071292 0.976702 -0.202411
vn -0.092715 -0.976702 -0.193538
vn -0.274748 -0.923914 -0.266264
vn -0.151939 -0.923914 -0.351137
vn -0.396533 -0.831554 -0.388946
vn -0.217506 -0.831554 -0.511086
vn -0.503104 -0.707231 -0.496699
vn -0.274729 -0.707231 -0.651420
vn -0.590365 -0.555709 -0.585369
vn -0.321415 -0.555709 -0.766733
vn -0.654954 -0.382802 -0.651534
vn -0.355767 -0.382802 -0.852580
vn -0.694378 -0.195159 -0.692642
vn -0.376459 -0.195159 -0.905644
vn -0.707107 0.000000 -0.707107
vn -0.382683 0.000000 -0.923880
vn -0.692642 0.195159 -0.694378
vn -0.374191 0.195159 -0.906584
vn -0.651534 0.382802 -0.654954
vn -0.351299 0.382802 -0.854430
vn -0.585369 0.555709 -0.590365
vn -0.314888 0.555709 -0.769437
vn -0.496699 0.707231 -0.503104
vn -0.266361 0.707231 -0.654886
vn -0.388946 0.831554 -0.396533
vn -0.207593 0.831554 -0.515192
vn -0.266264 0.923914 -0.274748
vn -0.140855 0.923914 -0.355729
vn -0.143325 0.976702 -0.159722
vn -0.159722 -0.976702 -0.143325
vn -0.355729 -0.923914 -0.140855
vn -0.274748 -0.923914 -0.266264
vn -0.515192 -0.831554 -0.207593
vn -0.396533 -0.831554 -0.388946
vn -0.654886 -0.707231 -0.266361
vn -0.503104 -0.707231 -0.496699
vn -0.769437 -0.555709 -0.314888
vn -0.590365 -0.555709 -0.585369
vn -0.854430 -0.382802 -0.351299
vn -0.654954 -0.382802 -0.651534
vn -0.906584 -0.195159 -0.374191
vn -0.694378 -0.195159 -0.692642
vn -0.923880 -0.000000 -0.382683
vn -0.707107 0.000000 -0.707107
vn -0.905644 0.195159 -0.376459
vn -0.692642 0.195159 -0.694378
vn -0.852579 0.382802 -0.355767
vn -0.651534 0.382802 -0.654954
vn -0.766733 0.555709 -0.321415
vn -0.585369 0.555709 -0.590365
vn -0.651420 0.707231 -0.274729
vn -0.496699 0.707231 -0.503104
vn -0.511086 0.831554 -0.217506
vn -0.388946 0.831554 -0.396533
vn -0.351137 0.923914 -0.151939
vn -0.266264 0.923914 -0.274748
vn -0.193538 0.976702 -0.092715
vn -0.202411 -0.976702 -0.071292
vn -0.382553 -0.923914 0.005999
vn -0.355729 -0.923914 -0.140855
vn -0.555418 -0.831554 0.005365
vn -0.515192 -0.831554 -0.207593
vn -0.706968 -0.707231 0.004529
vn -0.654886 -0.707231 -0.266361
vn -0.831369 -0.555709 0.003532
vn -0.769437 -0.555709 -0.314888
vn -0.923827 -0.382802 0.002418
vn -0.854430 -0.382802 -0.351299
vn -0.980771 -0.195159 0.001228
vn -0.906584 -0.195159 -0.374191
vn -1.000000 0.000000 -0.000000
vn -0.923880 -0.000000 -0.382683
vn -0.980771 0.195159 -0.001228
vn -0.905644 0.195159 -0.376459
vn -0.923827 0.382802 -0.002418
vn -0.852579 0.382802 -0.355767
vn -0.831369 0.555709 -0.003532
vn -0.766733 0.555709 -0.321415
vn -0.706968 0.707231 -0.004529
vn -0.651420 0.707231 -0.274729
vn -0.555418 0.831554 -0.005365
vn -0.511086 0.831554 -0.217506
vn -0.382553 0.923914 -0.005999
vn -0.351137 0.923914 -0.151939
vn -0.214286 0.976702 -0.011594
#end 1440 vertex normals

#begin texture vertices
vt 0.000000 0.000000 0.000000
vt -0.125000 0.695913 0.000000
vt 0.000000 0.000000 0.000000
vt 0.000000 0.000000 0.000000
vt 0.125000 0.695913 0.000000
vt -0.125000 0.304087 0.000000
vt 0.000000 0.000000 0.000000
vt 0.625000 0.304087 0.000000
vt 0.375000 0.304087 0.000000
vt 0.000000 0.000000 0.000000
vt 0.375000 0.695913 0.000000
vt 0.125000 0.695913 0.000000
vt 0.000000 0.000000 0.000000
vt 0.625000 0.695913 0.000000
vt 0.625000 0.304087 0.000000
vt 0.000000 0.000000 0.000000
vt 0.625000 0.695913 0.000000
vt 0.875000 0.695913 0.000000
vt 0.000000 0.000000 0.000000
vt 0.625000 0.695913 0.000000
vt 0.375000 0.695913 0.000000
vt 0.000000 0.000000 0.000000
vt 0.000000 0.000000 0.000000
vt 0.000000 0.000000 0.000000
vt 0.000000 0.000000 0.000000
vt 0.000000 0.000000 0.000000
vt 0.000000 0.000000 0.000000
vt 0.000000 0.000000 0.000000
vt 0.000000 0.000000 0.000000
vt 0.000000 0.000000 0.000000
vt 0.125000 0.304087 0.000000
vt 0.000000 0.000000 0.000000
vt 0.125000 0.304087 0.000000
vt 0.875000 0.304087 0.000000
vt 0.000000 0.000000 0.000000
vt 0.875000 0.304087 0.000000
vt 0.375000 0.304087 0.000000
vt 0.000000 0.000000 0.000000
vt 0.125000 0.695913 0.000000
vt 0.875000 0.695913 0.000000
vt 0.000000 0.000000 0.000000
vt 0.375000 0.304087 0.000000
vt 0.375000 0.695913 0.000000
vt 0.000000 0.000000 0.000000
vt 0.000000 0.000000 0.000000
vt 0.625000 0.304087 0.000000
vt 0.000000 0.000000 0.000000
vt 0.000000 0.000000 0.000000
vt 0.000000 0.000000 0.000000
vt 0.000000 0.000000 0.000000
vt 0.000000 0.000000 0.000000
vt 0.000000 0.000000 0.000000
vt 0.000000 0.000000 0.000000
vt 0.000000 0.000000 0.000000
vt 0.000000 0.000000 0.000000
vt 0.000000 0.000000 0.000000
vt 0.000000 0.000000 0.000000
vt 0.000000 0.000000 0.000000
vt 0.000000 0.000000 0.000000
vt 0.000000 0.000000 0.000000
vt 0.000000 0.000000 0.000000
vt 0.000000 0.000000 0.000000
vt 0.000000 0.000000 0.000000
vt 0.000000 0.000000 0.000000
vt 0.000000 0.000000 0.000000
vt 0.000000 0.000000 0.000000
vt 0.000000 0.000000 0.000000
vt 0.000000 0.000000 0.000000
vt 0.000000 0.000000 0.000000
vt 0.000000 0.000000 0.000000
vt 0.000000 0.000000 0.000000
vt 0.000000 0.000000 0.000000
vt 0.000000 0.000000 0.000000
vt 0.000000 0.000000 0.000000
vt 0.000000 0.000000 0.000000
vt 0.000000 0.000000 0.000000
vt 0.000000 0.000000 0.000000
vt 0.000000 0.000000 0.000000
vt 0.000000 0.000000 0.000000
vt 0.000000 0.000000 0.000000
vt 0.000000 0.000000 0.000000
vt 0.000000 0.000000 0.000000
vt 0.000000 0.000000 0.000000
vt 0.000000 0.000000 0.000000
vt 0.000000 0.000000 0.000000
vt 0.000000 0.000000 0.000000
vt 0.000000 0.000000 0.000000
vt 0.000000 0.000000 0.000000
vt 0.000000 0.000000 0.000000
vt 0.000000 0.000000 0.000000
vt 0.000000 0.000000 0.000000
vt 0.000000 0.000000 0.000000
vt 0.000000 0.000000 0.000000
vt 0.000000 0.000000 0.000000
vt 0.000000 0.000000 0.000000
vt 0.000000 0.000000 0.000000
vt 0.000000 0.000000 0.000000
vt 0.000000 0.000000 0.000000
vt 0.000000 0.000000 0.000000
vt 0.000000 0.000000 0.000000
vt 0.000000 0.000000 0.000000
vt 0.000000 0.000000 0.000000
vt 0.000000 0.000000 0.000000
vt 0.000000 0.000000 0.000000
vt 0.000000 0.000000 0.000000
vt 0.000000 0.000000 0.000000
vt 0.000000 0.000000 0.000000
vt 0.000000 0.000000 0.000000
vt 0.000000 0.000000 0.000000
vt 0.000000 0.000000 0.000000
vt 0.000000 0.000000 0.000000
vt 0.000000 0.000000 0.000000
vt 0.000000 0.000000 0.000000
vt 0.000000 0.000000 0.000000
vt 0.000000 0.000000 0.000000
vt 0.000000 0.000000 0.000000
vt 0.000000 0.000000 0.000000
vt 0.000000 0.000000 0.000000
vt 0.000000 0.000000 0.000000
vt 0.000000 0.000000 0.000000
vt 0.000000 0.000000 0.000000
vt 0.000000 0.000000 0.000000
vt 0.000000 0.000000 0.000000
vt 0.000000 0.000000 0.000000
vt 0.000000 0.000000 0.000000
vt 0.000000 0.000000 0.000000
vt 0.000000 0.000000 0.000000
vt 0.000000 0.000000 0.000000
vt 0.000000 0.000000 0.000000
vt 0.000000 0.000000 0.000000
vt 0.000000 0.000000 0.000000
vt 0.000000 0.000000 0.000000
vt 0.000000 0.000000 0.000000
vt 0.000000 0.000000 0.000000
vt 0.000000 0.000000 0.000000
vt 0.000000 0.000000 0.000000
vt 0.000000 0.000000 0.000000
vt 0.000000 0.000000 0.000000
vt 0.000000 0.000000 0.000000
vt 0.000000 0.000000 0.000000
vt 0.000000 0.000000 0.000000
vt 0.000000 0.000000 0.000000
vt 0.000000 0.000000 0.000000
vt 0.000000 0.000000 0.000000
vt 0.000000 0.000000 0.000000
vt 0.000000 0.000000 0.000000
vt 0.000000 0.000000 0.000000
vt 0.000000 0.000000 0.000000
vt 0.000000 0.000000 0.000000
vt 0.000000 0.000000 0.000000
vt 0.000000 0.000000 0.000000
vt 0.000000 0.000000 0.000000
vt 0.000000 0.000000 0.000000
vt 0.000000 0.000000 0.000000
vt 0.000000 0.000000 0.000000
vt 0.000000 0.000000 0.000000
vt 0.000000 0.000000 0.000000
vt 0.000000 0.000000 0.000000
vt 0.000000 0.000000 0.000000
vt 0.000000 0.000000 0.000000
vt 0.000000 0.000000 0.000000
vt 0.000000 0.000000 0.000000
vt 0.000000 0.000000 0.000000
vt 0.000000 0.000000 0.000000
vt 0.000000 0.000000 0.000000
vt 0.000000 0.000000 0.000000
vt 0.000000 0.000000 0.000000
vt 0.000000 0.000000 0.000000
vt 0.000000 0.000000 0.000000
vt 0.000000 0.000000 0.000000
vt 0.000000 0.000000 0.000000
vt 0.000000 0.000000 0.000000
vt 0.000000 0.000000 0.000000
vt 0.000000 0.000000 0.000000
vt 0.000000 0.000000 0.000000
vt 0.000000 0.000000 0.000000
vt 0.000000 0.000000 0.000000
vt 0.000000 0.000000 0.000000
vt 0.000000 0.000000 0.000000
vt 0.000000 0.000000 0.000000
vt 0.000000 0.000000 0.000000
vt 0.000000 0.000000 0.000000
vt 0.000000 0.000000 0.000000
vt 0.000000 0.000000 0.000000
vt 0.000000 0.000000 0.000000
vt 0.000000 0.000000 0.000000
vt 0.000000 0.000000 0.000000
vt 0.000000 0.000000 0.000000
vt 0.000000 0.000000 0.000000
vt 0.000000 0.000000 0.000000
vt 0.000000 0.000000 0.000000
vt 0.000000 0.000000 0.000000
vt 0.000000 0.000000 0.000000
vt 0.000000 0.000000 0.000000
vt 0.000000 0.000000 0.000000
vt 0.000000 0.000000 0.000000
vt 0.000000 0.000000 0.000000
vt 0.000000 0.000000 0.000000
vt 0.000000 0.000000 0.000000
vt 0.000000 0.000000 0.000000
vt 0.000000 0.000000 0.000000
vt 0.000000 0.000000 0.000000
vt 0.000000 0.000000 0.000000
vt 0.000000 0.000000 0.000000
vt 0.000000 0.000000 0.000000
vt 0.000000 0.000000 0.000000
vt 0.000000 0.000000 0.000000
vt 0.000000 0.000000 0.000000
vt 0.000000 0.000000 0.000000
vt 0.000000 0.000000 0.000000
vt 0.000000 0.000000 0.000000
vt 0.000000 0.000000 0.000000
vt 0.000000 0.000000 0.000000
vt 0.000000 0.000000 0.000000
vt 0.000000 0.000000 0.000000
vt 0.000000 0.000000 0.000000
vt 0.000000 0.000000 0.000000
vt 0.000000 0.000000 0.000000
vt 0.000000 0.000000 0.000000
vt 0.000000 0.000000 0.000000
vt 0.000000 0.000000 0.000000
vt 0.000000 0.000000 0.000000
vt 0.000000 0.000000 0.000000
vt 0.000000 0.000000 0.000000
vt 0.000000 0.000000 0.000000
vt 0.000000 0.000000 0.000000
vt 0.000000 0.000000 0.000000
vt 0.000000 0.000000 0.000000
vt 0.000000 0.000000 0.000000
vt 0.000000 0.000000 0.000000
vt 0.000000 0.000000 0.000000
vt 0.000000 0.000000 0.000000
vt 0.000000 0.000000 0.000000
vt 0.000000 0.000000 0.000000
vt 0.000000 0.000000 0.000000
vt 0.000000 0.000000 0.000000
vt 0.000000 0.000000 0.000000
vt 0.000000 0.000000 0.000000
vt 0.000000 0.000000 0.000000
vt 0.000000 0.000000 0.000000
vt 0.000000 0.000000 0.000000
vt 0.000000 0.000000 0.000000
vt 0.000000 0.000000 0.000000
vt 0.000000 0.000000 0.000000
vt 0.000000 0.000000 0.000000
vt 0.000000 0.000000 0.000000
vt 0.000000 0.000000 0.000000
vt 0.000000 0.000000 0.000000
vt 0.000000 0.000000 0.000000
vt 0.000000 0.000000 0.000000
vt 0.000000 0.000000 0.000000
vt 0.000000 0.000000 0.000000
vt 0.000000 0.000000 0.000000
vt 0.000000 0.000000 0.000000
vt 0.000000 0.000000 0.000000
vt 0.000000 0.000000 0.000000
vt 0.000000 0.000000 0.000000
vt 0.000000 0.000000 0.000000
vt 0.000000 0.000000 0.000000
vt 0.000000 0.000000 0.000000
vt 0.000000 0.000000 0.000000
vt 0.000000 0.000000 0.000000
vt 0.000000 0.000000 0.000000
vt 0.000000 0.000000 0.000000
vt 0.000000 0.000000 0.000000
#end 265 texture vertices

#begin 480 faces
usemtl material
f 18/31/1 3/5/2 1/2/3 
usemtl material
f 3/6/4 19/34/6 4/8/7 
usemtl material
f 4/9/8 20/37/10 5/11/11 
usemtl material
f 5/12/12 21/40/14 6/14/15 
usemtl material
f 6/15/16 22/43/18 7/17/19 
usemtl material
f 7/18/20 23/46/22 8/20/23 
usemtl material
f 8/21/24 24/47/26 9/22/27 
usemtl material
f 9/22/28 25/48/30 10/23/31 
usemtl material
f 10/23/32 26/49/34 11/24/35 
usemtl material
f 11/24/36 27/50/38 12/25/39 
usemtl material
f 12/25/40 28/51/42 13/26/43 
usemtl material
f 13/26/44 29/52/46 14/27/47 
usemtl material
f 14/27/48 30/53/50 15/28/51 
usemtl material
f 15/28/52 31/54/54 16/29/55 
usemtl material
f 16/29/56 32/55/58 17/30/59 
usemtl material
f 17/30/60 32/55/61 2/3/62 
usemtl material
f 33/56/63 18/32/64 1/1/65 
usemtl material
f 18/32/66 34/57/68 19/35/69 
usemtl material
f 19/35/70 35/58/72 20/38/73 
usemtl material
f 20/38/74 36/59/76 21/41/77 
usemtl material
f 21/41/78 37/60/80 22/44/81 
usemtl material
f 22/44/82 38/61/84 23/45/85 
usemtl material
f 23/45/86 39/62/88 24/47/89 
usemtl material
f 24/47/90 40/63/92 25/48/93 
usemtl material
f 25/48/94 41/64/96 26/49/97 
usemtl material
f 26/49/98 42/65/100 27/50/101 
usemtl material
f 27/50/102 43/66/104 28/51/105 
usemtl material
f 28/51/106 44/67/108 29/52/109 
usemtl material
f 29/52/110 45/68/112 30/53/113 
usemtl material
f 30/53/114 46/69/116 31/54/117 
usemtl material
f 31/54/118 47/70/120 32/55/121 
usemtl material
f 32/55/122 47/70/123 2/3/124 
usemtl material
f 48/71/125 33/56/126 1/1/127 
usemtl material
f 33/56/128 49/72/130 34/57/131 
usemtl material
f 34/57/132 50/73/134 35/58/135 
usemtl material
f 35/58/136 51/74/138 36/59/139 
usemtl material
f 36/59/140 52/75/142 37/60/143 
usemtl material
f 37/60/144 53/76/146 38/61/147 
usemtl material
f 38/61/148 54/77/150 39/62/151 
usemtl material
f 39/62/152 55/78/154 40/63/155 
usemtl material
f 40/63/156 56/79/158 41/64/159 
usemtl material
f 41/64/160 57/80/162 42/65/163 
usemtl material
f 42/65/164 58/81/166 43/66/167 
usemtl material
f 43/66/168 59/82/170 44/67/171 
usemtl material
f 44/67/172 60/83/174 45/68/175 
usemtl material
f 45/68/176 61/84/178 46/69/179 
usemtl material
f 46/69/180 62/85/182 47/70/183 
usemtl material
f 47/70/184 62/85/185 2/3/186 
usemtl material
f 63/86/187 48/71/188 1/1/189 
usemtl material
f 48/71/190 64/87/192 49/72/193 
usemtl material
f 49/72/194 65/88/196 50/73/197 
usemtl material
f 50/73/198 66/89/200 51/74/201 
usemtl material
f 51/74/202 67/90/204 52/75/205 
usemtl material
f 52/75/206 68/91/208 53/76/209 
usemtl material
f 53/76/210 69/92/212 54/77/213 
usemtl material
f 54/77/214 70/93/216 55/78/217 
usemtl material
f 55/78/218 71/94/220 56/79/221 
usemtl material
f 56/79/222 72/95/224 57/80/225 
usemtl material
f 57/80/226 73/96/228 58/81/229 
usemtl material
f 58/81/230 74/97/232 59/82/233 
usemtl material
f 59/82/234 75/98/236 60/83/237 
usemtl material
f 60/83/238 76/99/240 61/84/241 
usemtl material
f 61/84/242 77/100/244 62/85/245 
usemtl material
f 62/85/246 77/100/247 2/3/248 
usemtl material
f 78/101/249 63/86/250 1/1/251 
usemtl material
f 63/86/252 79/102/254 64/87/255 
usemtl material
f 64/87/256 80/103/258 65/88/259 
usemtl material
f 65/88/260 81/104/262 66/89/263 
usemtl material
f 66/89/264 82/105/266 67/90/267 
usemtl material
f 67/90/268 83/106/270 68/91/271 
usemtl material
f 68/91/272 84/107/274 69/92/275 
usemtl material
f 69/92/276 85/108/278 70/93/279 
usemtl material
f 70/93/280 86/109/282 71/94/283 
usemtl material
f 71/94/284 87/110/286 72/95/287 
usemtl material
f 72/95/288 88/111/290 73/96/291 
usemtl material
f 73/96/292 89/112/294 74/97/295 
usemtl material
f 74/97/296 90/113/298 75/98/299 
usemtl material
f 75/98/300 91/114/302 76/99/303 
usemtl material
f 76/99/304 92/115/306 77/100/307 
usemtl material
f 77/100/308 92/115/309 2/3/310 
usemtl material
f 93/116/311 78/101/312 1/1/313 
usemtl material
f 78/101/314 94/117/316 79/102/317 
usemtl material
f 79/102/318 95/118/320 80/103/321 
usemtl material
f 80/103/322 96/119/324 81/104/325 
usemtl material
f 81/104/326 97/120/328 82/105/329 
usemtl material
f 82/105/330 98/121/332 83/106/333 
usemtl material
f 83/106/334 99/122/336 84/107/337 
usemtl material
f 84/107/338 100/123/340 85/108/341 
usemtl material
f 85/108/342 101/124/344 86/109/345 
usemtl material
f 86/109/346 102/125/348 87/110/349 
usemtl material
f 87/110/350 103/126/352 88/111/353 
usemtl material
f 88/111/354 104/127/356 89/112/357 
usemtl material
f 89/112/358 105/128/360 90/113/361 
usemtl material
f 90/113/362 106/129/364 91/114/365 
usemtl material
f 91/114/366 107/130/368 92/115/369 
usemtl material
f 92/115/370 107/130/371 2/3/372 
usemtl material
f 108/131/373 93/116/374 1/1/375 
usemtl material
f 93/116/376 109/132/378 94/117/379 
usemtl material
f 94/117/380 110/133/382 95/118/383 
usemtl material
f 95/118/384 111/134/386 96/119/387 
usemtl material
f 96/119/388 112/135/390 97/120/391 
usemtl material
f 97/120/392 113/136/394 98/121/395 
usemtl material
f 98/121/396 114/137/398 99/122/399 
usemtl material
f 99/122/400 115/138/402 100/123/403 
usemtl material
f 100/123/404 116/139/406 101/124/407 
usemtl material
f 101/124/408 117/140/410 102/125/411 
usemtl material
f 102/125/412 118/141/414 103/126/415 
usemtl material
f 103/126/416 119/142/418 104/127/419 
usemtl material
f 104/127/420 120/143/422 105/128/423 
usemtl material
f 105/128/424 121/144/426 106/129/427 
usemtl material
f 106/129/428 122/145/430 107/130/431 
usemtl material
f 107/130/432 122/145/433 2/3/434 
usemtl material
f 123/146/435 108/131/436 1/1/437 
usemtl material
f 108/131/438 124/147/440 109/132/441 
usemtl material
f 109/132/442 125/148/444 110/133/445 
usemtl material
f 110/133/446 126/149/448 111/134/449 
usemtl material
f 111/134/450 127/150/452 112/135/453 
usemtl material
f 112/135/454 128/151/456 113/136/457 
usemtl material
f 113/136/458 129/152/460 114/137/461 
usemtl material
f 114/137/462 130/153/464 115/138/465 
usemtl material
f 115/138/466 131/154/468 116/139/469 
usemtl material
f 116/139/470 132/155/472 117/140/473 
usemtl material
f 117/140/474 133/156/476 118/141/477 
usemtl material
f 118/141/478 134/157/480 119/142/481 
usemtl material
f 119/142/482 135/158/484 120/143/485 
usemtl material
f 120/143/486 136/159/488 121/144/489 
usemtl material
f 121/144/490 137/160/492 122/145/493 
usemtl material
f 122/145/494 137/160/495 2/3/496 
usemtl material
f 138/161/497 123/146/498 1/1/499 
usemtl material
f 123/146/500 139/162/502 124/147/503 
usemtl material
f 124/147/504 140/163/506 125/148/507 
usemtl material
f 125/148/508 141/164/510 126/149/511 
usemtl material
f 126/149/512 142/165/514 127/150/515 
usemtl material
f 127/150/516 143/166/518 128/151/519 
usemtl material
f 128/151/520 144/167/522 129/152/523 
usemtl material
f 129/152/524 145/168/526 130/153/527 
usemtl material
f 130/153/528 146/169/530 131/154/531 
usemtl material
f 131/154/532 147/170/534 132/155/535 
usemtl material
f 132/155/536 148/171/538 133/156/539 
usemtl material
f 133/156/540 149/172/542 134/157/543 
usemtl material
f 134/157/544 150/173/546 135/158/547 
usemtl material
f 135/158/548 151/174/550 136/159/551 
usemtl material
f 136/159/552 152/175/554 137/160/555 
usemtl material
f 137/160/556 152/175/557 2/3/558 
usemtl material
f 153/176/559 138/161/560 1/1/561 
usemtl material
f 138/161/562 154/177/564 139/162/565 
usemtl material
f 139/162/566 155/178/568 140/163/569 
usemtl material
f 140/163/570 156/179/572 141/164/573 
usemtl material
f 141/164/574 157/180/576 142/165/577 
usemtl material
f 142/165/578 158/181/580 143/166/581 
usemtl material
f 143/166/582 159/182/584 144/167/585 
usemtl material
f 144/167/586 160/183/588 145/168/589 
usemtl material
f 145/168/590 161/184/592 146/169/593 
usemtl material
f 146/169/594 162/185/596 147/170/597 
usemtl material
f 147/170/598 163/186/600 148/171/601 
usemtl material
f 148/171/602 164/187/604 149/172/605 
usemtl material
f 149/172/606 165/188/608 150/173/609 
usemtl material
f 150/173/610 166/189/612 151/174/613 
usemtl material
f 151/174/614 167/190/616 152/175/617 
usemtl material
f 152/175/618 167/190/619 2/3/620 
usemtl material
f 168/191/621 153/176/622 1/1/623 
usemtl material
f 153/176/624 169/192/626 154/177/627 
usemtl material
f 154/177/628 170/193/630 155/178/631 
usemtl material
f 155/178/632 171/194/634 156/179/635 
usemtl material
f 156/179/636 172/195/638 157/180/639 
usemtl material
f 157/180/640 173/196/642 158/181/643 
usemtl material
f 158/181/644 174/197/646 159/182/647 
usemtl material
f 159/182/648 175/198/650 160/183/651 
usemtl material
f 160/183/652 176/199/654 161/184/655 
usemtl material
f 161/184/656 177/200/658 162/185/659 
usemtl material
f 162/185/660 178/201/662 163/186/663 
usemtl material
f 163/186/664 179/202/666 164/187/667 
usemtl material
f 164/187/668 180/203/670 165/188/671 
usemtl material
f 165/188/672 181/204/674 166/189/675 
usemtl material
f 166/189/676 182/205/678 167/190/679 
usemtl material
f 167/190/680 182/205/681 2/3/682 
usemtl material
f 183/206/683 168/191/684 1/1/685 
usemtl material
f 168/191/686 184/207/688 169/192/689 
usemtl material
f 169/192/690 185/208/692 170/193/693 
usemtl material
f 170/193/694 186/209/696 171/194/697 
usemtl material
f 171/194/698 187/210/700 172/195/701 
usemtl material
f 172/195/702 188/211/704 173/196/705 
usemtl material
f 173/196/706 189/212/708 174/197/709 
usemtl material
f 174/197/710 190/213/712 175/198/713 
usemtl material
f 175/198/714 191/214/716 176/199/717 
usemtl material
f 176/199/718 192/215/720 177/200/721 
usemtl material
f 177/200/722 193/216/724 178/201/725 
usemtl material
f 178/201/726 194/217/728 179/202/729 
usemtl material
f 179/202/730 195/218/732 180/203/733 
usemtl material
f 180/203/734 196/219/736 181/204/737 
usemtl material
f 181/204/738 197/220/740 182/205/741 
usemtl material
f 182/205/742 197/220/743 2/3/744 
usemtl material
f 198/221/745 183/206/746 1/1/747 
usemtl material
f 183/206/748 199/222/750 184/207/751 
usemtl material
f 184/207/752 200/223/754 185/208/755 
usemtl material
f 185/208/756 201/224/758 186/209/759 
usemtl material
f 186/209/760 202/225/762 187/210/763 
usemtl material
f 187/210/764 203/226/766 188/211/767 
usemtl material
f 188/211/768 204/227/770 189/212/771 
usemtl material
f 189/212/772 205/228/774 190/213/775 
usemtl material
f 190/213/776 206/229/778 191/214/779 
usemtl material
f 191/214/780 207/230/782 192/215/783 
usemtl material
f 192/215/784 208/231/786 193/216/787 
usemtl material
f 193/216/788 209/232/790 194/217/791 
usemtl material
f 194/217/792 210/233/794 195/218/795 
usemtl material
f 195/218/796 211/234/798 196/219/799 
usemtl material
f 196/219/800 212/235/802 197/220/803 
usemtl material
f 197/220/804 212/235/805 2/3/806 
usemtl material
f 213/236/807 198/221/808 1/1/809 
usemtl material
f 198/221/810 214/237/812 199/222/813 
usemtl material
f 199/222/814 215/238/816 200/223/817 
usemtl material
f 200/223/818 216/239/820 201/224/821 
usemtl material
f 201/224/822 217/240/824 202/225/825 
usemtl material
f 202/225/826 218/241/828 203/226/829 
usemtl material
f 203/226/830 219/242/832 204/227/833 
usemtl material
f 204/227/834 220/243/836 205/228/837 
usemtl material
f 205/228/838 221/244/840 206/229/841 
usemtl material
f 206/229/842 222/245/844 207/230/845 
usemtl material
f 207/230/846 223/246/848 208/231/849 
usemtl material
f 208/231/850 224/247/852 209/232/853 
usemtl material
f 209/232/854 225/248/856 210/233/857 
usemtl material
f 210/233/858 226/249/860 211/234/861 
usemtl material
f 211/234/862 227/250/864 212/235/865 
usemtl material
f 212/235/866 227/250/867 2/3/868 
usemtl material
f 228/251/869 213/236/870 1/1/871 
usemtl material
f 213/236/872 229/252/874 214/237/875 
usemtl material
f 214/237/876 230/253/878 215/238/879 
usemtl material
f 215/238/880 231/254/882 216/239/883 
usemtl material
f 216/239/884 232/255/886 217/240/887 
usemtl material
f 217/240/888 233/256/890 218/241/891 
usemtl material
f 218/241/892 234/257/894 219/242/895 
usemtl material
f 219/242/896 235/258/898 220/243/899 
usemtl material
f 220/243/900 236/259/902 221/244/903 
usemtl material
f 221/244/904 237/260/906 222/245/907 
usemtl material
f 222/245/908 238/261/910 223/246/911 
usemtl material
f 223/246/912 239/262/914 224/247/915 
usemtl material
f 224/247/916 240/263/918 225/248/919 
usemtl material
f 225/248/920 241/264/922 226/249/923 
usemtl material
f 226/249/924 242/265/926 227/250/927 
usemtl material
f 227/250/928 242/265/929 2/3/930 
usemtl material
f 3/4/931 228/251/932 1/1/933 
usemtl material
f 228/251/934 4/7/936 229/252/937 
usemtl material
f 229/252/938 5/10/940 230/253/941 
usemtl material
f 230/253/942 6/13/944 231/254/945 
usemtl material
f 231/254/946 7/16/948 232/255/949 
usemtl material
f 232/255/950 8/19/952 233/256/953 
usemtl material
f 233/256/954 9/22/956 234/257/957 
usemtl material
f 234/257/958 10/23/960 235/258/961 
usemtl material
f 235/258/962 11/24/964 236/259/965 
usemtl material
f 236/259/966 12/25/968 237/260/969 
usemtl material
f 237/260/970 13/26/972 238/261/973 
usemtl material
f 238/261/974 14/27/976 239/262/977 
usemtl material
f 239/262/978 15/28/980 240/263/981 
usemtl material
f 240/263/982 16/29/984 241/264/985 
usemtl material
f 241/264/986 17/30/988 242/265/989 
usemtl material
f 242/265/990 17/30/991 2/3/992 
usemtl material
f 18/31/5 19/35/994 3/4/993 
usemtl material
f 19/33/9 20/38/996 4/7/995 
usemtl material
f 20/36/13 21/41/998 5/10/997 
usemtl material
f 21/39/17 22/44/1000 6/13/999 
usemtl material
f 22/42/21 23/45/1002 7/16/1001 
usemtl material
f 23/45/25 24/47/1004 8/19/1003 
usemtl material
f 24/47/29 25/48/1006 9/22/1005 
usemtl material
f 25/48/33 26/49/1008 10/23/1007 
usemtl material
f 26/49/37 27/50/1010 11/24/1009 
usemtl material
f 27/50/41 28/51/1012 12/25/1011 
usemtl material
f 28/51/45 29/52/1014 13/26/1013 
usemtl material
f 29/52/49 30/53/1016 14/27/1015 
usemtl material
f 30/53/53 31/54/1018 15/28/1017 
usemtl material
f 31/54/57 32/55/1020 16/29/1019 
usemtl material
f 33/56/67 34/57/1022 18/32/1021 
usemtl material
f 34/57/71 35/58/1024 19/35/1023 
usemtl material
f 35/58/75 36/59/1026 20/38/1025 
usemtl material
f 36/59/79 37/60/1028 21/41/1027 
usemtl material
f 37/60/83 38/61/1030 22/44/1029 
usemtl material
f 38/61/87 39/62/1032 23/45/1031 
usemtl material
f 39/62/91 40/63/1034 24/47/1033 
usemtl material
f 40/63/95 41/64/1036 25/48/1035 
usemtl material
f 41/64/99 42/65/1038 26/49/1037 
usemtl material
f 42/65/103 43/66/1040 27/50/1039 
usemtl material
f 43/66/107 44/67/1042 28/51/1041 
usemtl material
f 44/67/111 45/68/1044 29/52/1043 
usemtl material
f 45/68/115 46/69/1046 30/53/1045 
usemtl material
f 46/69/119 47/70/1048 31/54/1047 
usemtl material
f 48/71/129 49/72/1050 33/56/1049 
usemtl material
f 49/72/133 50/73/1052 34/57/1051 
usemtl material
f 50/73/137 51/74/1054 35/58/1053 
usemtl material
f 51/74/141 52/75/1056 36/59/1055 
usemtl material
f 52/75/145 53/76/1058 37/60/1057 
usemtl material
f 53/76/149 54/77/1060 38/61/1059 
usemtl material
f 54/77/153 55/78/1062 39/62/1061 
usemtl material
f 55/78/157 56/79/1064 40/63/1063 
usemtl material
f 56/79/161 57/80/1066 41/64/1065 
usemtl material
f 57/80/165 58/81/1068 42/65/1067 
usemtl material
f 58/81/169 59/82/1070 43/66/1069 
usemtl material
f 59/82/173 60/83/1072 44/67/1071 
usemtl material
f 60/83/177 61/84/1074 45/68/1073 
usemtl material
f 61/84/181 62/85/1076 46/69/1075 
usemtl material
f 63/86/191 64/87/1078 48/71/1077 
usemtl material
f 64/87/195 65/88/1080 49/72/1079 
usemtl material
f 65/88/199 66/89/1082 50/73/1081 
usemtl material
f 66/89/203 67/90/1084 51/74/1083 
usemtl material
f 67/90/207 68/91/1086 52/75/1085 
usemtl material
f 68/91/211 69/92/1088 53/76/1087 
usemtl material
f 69/92/215 70/93/1090 54/77/1089 
usemtl material
f 70/93/219 71/94/1092 55/78/1091 
usemtl material
f 71/94/223 72/95/1094 56/79/1093 
usemtl material
f 72/95/227 73/96/1096 57/80/1095 
usemtl material
f 73/96/231 74/97/1098 58/81/1097 
usemtl material
f 74/97/235 75/98/1100 59/82/1099 
usemtl material
f 75/98/239 76/99/1102 60/83/1101 
usemtl material
f 76/99/243 77/100/1104 61/84/1103 
usemtl material
f 78/101/253 79/102/1106 63/86/1105 
usemtl material
f 79/102/257 80/103/1108 64/87/1107 
usemtl material
f 80/103/261 81/104/1110 65/88/1109 
usemtl material
f 81/104/265 82/105/1112 66/89/1111 
usemtl material
f 82/105/269 83/106/1114 67/90/1113 
usemtl material
f 83/106/273 84/107/1116 68/91/1115 
usemtl material
f 84/107/277 85/108/1118 69/92/1117 
usemtl material
f 85/108/281 86/109/1120 70/93/1119 
usemtl material
f 86/109/285 87/110/1122 71/94/1121 
usemtl material
f 87/110/289 88/111/1124 72/95/1123 
usemtl material
f 88/111/293 89/112/1126 73/96/1125 
usemtl material
f 89/112/297 90/113/1128 74/97/1127 
usemtl material
f 90/113/301 91/114/1130 75/98/1129 
usemtl material
f 91/114/305 92/115/1132 76/99/1131 
usemtl material
f 93/116/315 94/117/1134 78/101/1133 
usemtl material
f 94/117/319 95/118/1136 79/102/1135 
usemtl material
f 95/118/323 96/119/1138 80/103/1137 
usemtl material
f 96/119/327 97/120/1140 81/104/1139 
usemtl material
f 97/120/331 98/121/1142 82/105/1141 
usemtl material
f 98/121/335 99/122/1144 83/106/1143 
usemtl material
f 99/122/339 100/123/1146 84/107/1145 
usemtl material
f 100/123/343 101/124/1148 85/108/1147 
usemtl material
f 101/124/347 102/125/1150 86/109/1149 
usemtl material
f 102/125/351 103/126/1152 87/110/1151 
usemtl material
f 103/126/355 104/127/1154 88/111/1153 
usemtl material
f 104/127/359 105/128/1156 89/112/1155 
usemtl material
f 105/128/363 106/129/1158 90/113/1157 
usemtl material
f 106/129/367 107/130/1160 91/114/1159 
usemtl material
f 108/131/377 109/132/1162 93/116/1161 
usemtl material
f 109/132/381 110/133/1164 94/117/1163 
usemtl material
f 110/133/385 111/134/1166 95/118/1165 
usemtl material
f 111/134/389 112/135/1168 96/119/1167 
usemtl material
f 112/135/393 113/136/1170 97/120/1169 
usemtl material
f 113/136/397 114/137/1172 98/121/1171 
usemtl material
f 114/137/401 115/138/1174 99/122/1173 
usemtl material
f 115/138/405 116/139/1176 100/123/1175 
usemtl material
f 116/139/409 117/140/1178 101/124/1177 
usemtl material
f 117/140/413 118/141/1180 102/125/1179 
usemtl material
f 118/141/417 119/142/1182 103/126/1181 
usemtl material
f 119/142/421 120/143/1184 104/127/1183 
usemtl material
f 120/143/425 121/144/1186 105/128/1185 
usemtl material
f 121/144/429 122/145/1188 106/129/1187 
usemtl material
f 123/146/439 124/147/1190 108/131/1189 
usemtl material
f 124/147/443 125/148/1192 109/132/1191 
usemtl material
f 125/148/447 126/149/1194 110/133/1193 
usemtl material
f 126/149/451 127/150/1196 111/134/1195 
usemtl material
f 127/150/455 128/151/1198 112/135/1197 
usemtl material
f 128/151/459 129/152/1200 113/136/1199 
usemtl material
f 129/152/463 130/153/1202 114/137/1201 
usemtl material
f 130/153/467 131/154/1204 115/138/1203 
usemtl material
f 131/154/471 132/155/1206 116/139/1205 
usemtl material
f 132/155/475 133/156/1208 117/140/1207 
usemtl material
f 133/156/479 134/157/1210 118/141/1209 
usemtl material
f 134/157/483 135/158/1212 119/142/1211 
usemtl material
f 135/158/487 136/159/1214 120/143/1213 
usemtl material
f 136/159/491 137/160/1216 121/144/1215 
usemtl material
f 138/161/501 139/162/1218 123/146/1217 
usemtl material
f 139/162/505 140/163/1220 124/147/1219 
usemtl material
f 140/163/509 141/164/1222 125/148/1221 
usemtl material
f 141/164/513 142/165/1224 126/149/1223 
usemtl material
f 142/165/517 143/166/1226 127/150/1225 
usemtl material
f 143/166/521 144/167/1228 128/151/1227 
usemtl material
f 144/167/525 145/168/1230 129/152/1229 
usemtl material
f 145/168/529 146/169/1232 130/153/1231 
usemtl material
f 146/169/533 147/170/1234 131/154/1233 
usemtl material
f 147/170/537 148/171/1236 132/155/1235 
usemtl material
f 148/171/541 149/172/1238 133/156/1237 
usemtl material
f 149/172/545 150/173/1240 134/157/1239 
usemtl material
f 150/173/549 151/174/1242 135/158/1241 
usemtl material
f 151/174/553 152/175/1244 136/159/1243 
usemtl material
f 153/176/563 154/177/1246 138/161/1245 
usemtl material
f 154/177/567 155/178/1248 139/162/1247 
usemtl material
f 155/178/571 156/179/1250 140/163/1249 
usemtl material
f 156/179/575 157/180/1252 141/164/1251 
usemtl material
f 157/180/579 158/181/1254 142/165/1253 
usemtl material
f 158/181/583 159/182/1256 143/166/1255 
usemtl material
f 159/182/587 160/183/1258 144/167/1257 
usemtl material
f 160/183/591 161/184/1260 145/168/1259 
usemtl material
f 161/184/595 162/185/1262 146/169/1261 
usemtl material
f 162/185/599 163/186/1264 147/170/1263 
usemtl material
f 163/186/603 164/187/1266 148/171/1265 
usemtl material
f 164/187/607 165/188/1268 149/172/1267 
usemtl material
f 165/188/611 166/189/1270 150/173/1269 
usemtl material
f 166/189/615 167/190/1272 151/174/1271 
usemtl material
f 168/191/625 169/192/1274 153/176/1273 
usemtl material
f 169/192/629 170/193/1276 154/177/1275 
usemtl material
f 170/193/633 171/194/1278 155/178/1277 
usemtl material
f 171/194/637 172/195/1280 156/179/1279 
usemtl material
f 172/195/641 173/196/1282 157/180/1281 
usemtl material
f 173/196/645 174/197/1284 158/181/1283 
usemtl material
f 174/197/649 175/198/1286 159/182/1285 
usemtl material
f 175/198/653 176/199/1288 160/183/1287 
usemtl material
f 176/199/657 177/200/1290 161/184/1289 
usemtl material
f 177/200/661 178/201/1292 162/185/1291 
usemtl material
f 178/201/665 179/202/1294 163/186/1293 
usemtl material
f 179/202/669 180/203/1296 164/187/1295 
usemtl material
f 180/203/673 181/204/1298 165/188/1297 
usemtl material
f 181/204/677 182/205/1300 166/189/1299 
usemtl material
f 183/206/687 184/207/1302 168/191/1301 
usemtl material
f 184/207/691 185/208/1304 169/192/1303 
usemtl material
f 185/208/695 186/209/1306 170/193/1305 
usemtl material
f 186/209/699 187/210/1308 171/194/1307 
usemtl material
f 187/210/703 188/211/1310 172/195/1309 
usemtl material
f 188/211/707 189/212/1312 173/196/1311 
usemtl material
f 189/212/711 190/213/1314 174/197/1313 
usemtl material
f 190/213/715 191/214/1316 175/198/1315 
usemtl material
f 191/214/719 192/215/1318 176/199/1317 
usemtl material
f 192/215/723 193/216/1320 177/200/1319 
usemtl material
f 193/216/727 194/217/1322 178/201/1321 
usemtl material
f 194/217/731 195/218/1324 179/202/1323 
usemtl material
f 195/218/735 196/219/1326 180/203/1325 
usemtl material
f 196/219/739 197/220/1328 181/204/1327 
usemtl material
f 198/221/749 199/222/1330 183/206/1329 
usemtl material
f 199/222/753 200/223/1332 184/207/1331 
usemtl material
f 200/223/757 201/224/1334 185/208/1333 
usemtl material
f 201/224/761 202/225/1336 186/209/1335 
usemtl material
f 202/225/765 203/226/1338 187/210/1337 
usemtl material
f 203/226/769 204/227/1340 188/211/1339 
usemtl material
f 204/227/773 205/228/1342 189/212/1341 
usemtl material
f 205/228/777 206/229/1344 190/213/1343 
usemtl material
f 206/229/781 207/230/1346 191/214/1345 
usemtl material
f 207/230/785 208/231/1348 192/215/1347 
usemtl material
f 208/231/789 209/232/1350 193/216/1349 
usemtl material
f 209/232/793 210/233/1352 194/217/1351 
usemtl material
f 210/233/797 211/234/1354 195/218/1353 
usemtl material
f 211/234/801 212/235/1356 196/219/1355 
usemtl material
f 213/236/811 214/237/1358 198/221/1357 
usemtl material
f 214/237/815 215/238/1360 199/222/1359 
usemtl material
f 215/238/819 216/239/1362 200/223/1361 
usemtl material
f 216/239/823 217/240/1364 201/224/1363 
usemtl material
f 217/240/827 218/241/1366 202/225/1365 
usemtl material
f 218/241/831 219/242/1368 203/226/1367 
usemtl material
f 219/242/835 220/243/1370 204/227/1369 
usemtl material
f 220/243/839 221/244/1372 205/228/1371 
usemtl material
f 221/244/843 222/245/1374 206/229/1373 
usemtl material
f 222/245/847 223/246/1376 207/230/1375 
usemtl material
f 223/246/851 224/247/1378 208/231/1377 
usemtl material
f 224/247/855 225/248/1380 209/232/1379 
usemtl material
f 225/248/859 226/249/1382 210/233/1381 
usemtl material
f 226/249/863 227/250/1384 211/234/1383 
usemtl material
f 228/251/873 229/252/1386 213/236/1385 
usemtl material
f 229/252/877 230/253/1388 214/237/1387 
usemtl material
f 230/253/881 231/254/1390 215/238/1389 
usemtl material
f 231/254/885 232/255/1392 216/239/1391 
usemtl material
f 232/255/889 233/256/1394 217/240/1393 
usemtl material
f 233/256/893 234/257/1396 218/241/1395 
usemtl material
f 234/257/897 235/258/1398 219/242/1397 
usemtl material
f 235/258/901 236/259/1400 220/243/1399 
usemtl material
f 236/259/905 237/260/1402 221/244/1401 
usemtl material
f 237/260/909 238/261/1404 222/245/1403 
usemtl material
f 238/261/913 239/262/1406 223/246/1405 
usemtl material
f 239/262/917 240/263/1408 224/247/1407 
usemtl material
f 240/263/921 241/264/1410 225/248/1409 
usemtl material
f 241/264/925 242/265/1412 226/249/1411 
usemtl material
f 3/4/935 4/7/1414 228/251/1413 
usemtl material
f 4/7/939 5/10/1416 229/252/1415 
usemtl material
f 5/10/943 6/13/1418 230/253/1417 
usemtl material
f 6/13/947 7/16/1420 231/254/1419 
usemtl material
f 7/16/951 8/19/1422 232/255/1421 
usemtl material
f 8/19/955 9/22/1424 233/256/1423 
usemtl material
f 9/22/959 10/23/1426 234/257/1425 
usemtl material
f 10/23/963 11/24/1428 235/258/1427 
usemtl material
f 11/24/967 12/25/1430 236/259/1429 
usemtl material
f 12/25/971 13/26/1432 237/260/1431 
usemtl material
f 13/26/975 14/27/1434 238/261/1433 
usemtl material
f 14/27/979 15/28/1436 239/262/1435 
usemtl material
f 15/28/983 16/29/1438 240/263/1437 
usemtl material
f 16/29/987 17/30/1440 241/264/1439 
#end 480 faces
