newmtl material
Ka 0.300000 0.300000 0.300000
Kd 0.700000 0.700000 0.700000
Ks 1.000000 1.000000 1.000000
Ns 50.000000
Tr 0.000000
illum 2
map_Kd C:\Users\SeanKat\Work\School\BCIT\CST\Term 4\COMP 4900 - Projects\Physics Engine\repo\NewtonLab\Models\grid\Untitled.bmp
